#135 - Sopron (Sopron + Vas + Moson + Zala)

owner = A01
controller = A01
add_core = A01
add_core = A68
culture = redfoot_halfling
religion = regent_court
hre = no
base_tax = 2
base_production = 4
trade_goods = tobacco
base_manpower = 1
capital = "" 
is_city = yes







