#226 - Gibraltar |

owner = A13
controller = A13
add_core = A13
add_core = A50
culture = old_alenic
religion = regent_court

hre = no

base_tax = 3
base_production = 3
base_manpower = 4

trade_goods = cloth

capital = ""

is_city = yes









