# No previous file for Querecho
owner = G67
controller = G67
add_core = G67
culture = kalavendhi
religion = gods_of_the_taychend
capital = ""

hre = no

base_tax = 8
base_production = 8
base_manpower = 5

trade_goods = precursor_relics

1420.1.1 = {	
	owner = G64
	controller = G64
	add_core = G64
}