# No previous file for Piankeshaw
owner = G82
controller = G82
add_core = G82
culture = thekvrystana
religion = gods_of_the_taychend
capital = ""

hre = no

base_tax = 2
base_production = 2
base_manpower = 1

trade_goods = tea

1443.1.1 = {	
	owner = G52
	controller = G52
	add_core = G52
}