#317 - Countsbridge

owner = A48
controller = A48
add_core = A48
culture = wexonard
religion = regent_court

hre = yes

base_tax = 4
base_production = 3
base_manpower = 3

trade_goods = iron

capital = ""

is_city = yes











add_permanent_province_modifier = {
	name = half_elven_minority_coexisting_small
	duration = -1
}