#473 - Samara

owner = F02
controller = F02
add_core = F02
add_core = F01
culture = kheteratan
religion = khetist

hre = no

base_tax = 5
base_production = 4
base_manpower = 6

trade_goods = incense
center_of_trade = 1

capital = ""

is_city = yes










