#517 - Eloan

owner = F17
controller = F17
add_core = F17
culture = crathanori
religion = regent_court


base_tax = 3
base_production = 3
base_manpower = 3

trade_goods = fish

capital = ""

is_city = yes












add_permanent_province_modifier = {
	name = elven_minority_coexisting_small
	duration = -1
}
