# No previous file for Ava
owner = F37
controller = F37
add_core = F37
add_core = F76
culture = brasanni
religion = bulwari_sun_cult

hre = no

base_tax = 3
base_production = 3
base_manpower = 2

trade_goods = spices

capital = ""

is_city = yes









