# No previous file for Mawdock
owner = Z22
controller = Z22
add_core = Z22
culture = blue_reachman
religion = regent_court

hre = no

base_tax = 4
base_production = 4
base_manpower = 3

trade_goods = naval_supplies

capital = ""

is_city = yes









