A72_north = {
	slot = 1
	generic = no
	ai = yes
	potential = {
		tag = A72
	}
	has_country_shield = yes
	
	A72_prepare_the_army = {
		icon = mission_assemble_an_army
		required_missions = { }
		#position = 1
		
		trigger = {
		    if = {
			    limit = { ai = no }
			        army_size_percentage = 1
			        manpower_percentage = 0.5
			}		
			else = {
                always = yes
			}	
		}
		
		effect = {
			420 = { add_permanent_claim = ROOT }
			921 = { add_permanent_claim = ROOT }
			922 = { add_permanent_claim = ROOT }
			gisden_area = {
				limit = {
					NOT = { is_core = ROOT }
					NOT = { owned_by = ROOT }
				}
				add_permanent_claim = ROOT
		    }
			if = {
			    limit = { ai = yes }
				    add_country_modifier = {
				    name = arannen_ready_for_war
				    duration = 9125 #25 years
					}
					412 = { add_permanent_claim = ROOT }
			        413 = { add_permanent_claim = ROOT }
			        414 = { add_permanent_claim = ROOT }
			        416 = { add_permanent_claim = ROOT }
			 
		    }	
	    }
	}	
	
	A72_secure_the_north = {
		icon = mission_build_up_to_force_limit
		required_missions = { A72_prepare_the_army }
		#position = 2
		
		provinces_to_highlight = {
			OR = {
				province_id = 312
				province_id = 321
				province_id = 326
			}
			NOT = {
				country_or_non_sovereign_subject_holds = ROOT
			}
		}
		
		trigger = {
			312 = { country_or_non_sovereign_subject_holds = ROOT }
			321 = { country_or_non_sovereign_subject_holds = ROOT }
			326 = { country_or_non_sovereign_subject_holds = ROOT }
		}
		
		
		effect = {
			ashfields_area = {
				limit = {
					NOT = { is_core = ROOT }
					NOT = { owned_by = ROOT }
				}
				add_permanent_claim = ROOT
			}	
			add_country_modifier = {
				name = arannen_ready_for_war
				duration = 9125 #25 years
			}
		}
	}
	
	A72_surpass_corvuria = {
		icon = mission_unite_home_region
		required_missions = { A72_secure_the_north }
		#position = 3
		
		provinces_to_highlight = {
			OR = {
				province_id = 310
				province_id = 311
				province_id = 320
			}
			NOT = {
				country_or_non_sovereign_subject_holds = ROOT
			}
		}
		
		trigger = {
			310 = { country_or_non_sovereign_subject_holds = ROOT }
			321 = { country_or_non_sovereign_subject_holds = ROOT }
			326 = { country_or_non_sovereign_subject_holds = ROOT }
			if = {
			    limit = {
					exists = A59
				}
				total_development = A59
				}
		        else = {
			       total_development = 140 }
		}
		
		effect = {
		    add_casus_belli = {
					type = cb_restore_personal_union
					months = 300
					target = A59
			}
			dostanor_region = {
				limit = {
					NOT = { is_core = ROOT }
					NOT = { owned_by = ROOT }
				}
				add_permanent_claim = ROOT
			}	
		}	
	}	
	
	A72_take_over_the_raven = {
		icon = mission_have_two_subjects
		required_missions = { A72_surpass_corvuria }
		#position = 4
		
		trigger = {
		    senior_union_with = A59
		}
		
		effect = {
		    add_country_modifier = {
				name = arannen_subjugated_corvuria
				duration = 9125 #25 years
			}
		}	
	}
	
	A72_integrate_the_corvurians = {
		icon = mission_alliances
		required_missions = { A72_take_over_the_raven }
		#position = 5
		
		provinces_to_highlight = {
			OR = {
				region = dostanor_region
			}
			NOT = {
				owned_by = ROOT
			}
		}
		
		trigger = {
		    dip_power = 50
			dostanor_region = {
			    type = all
				owned_by = ROOT
	        }
		}
		
		effect = {
		    add_dip_power = -50
			add_accepted_culture = corvurian
		} 
	}
}

A72_south = {
	slot = 2
	generic = no
	ai = yes
	potential = {
		tag = A72
	}
	has_country_shield = yes
	
	A72_secure_the_south = {
		icon = mission_steppe_warriors
		required_missions = { A72_prepare_the_army }
		position = 2
		
		provinces_to_highlight = {
			OR = {
				province_id = 420
				province_id = 921
				province_id = 922
			}
			NOT = {
				country_or_non_sovereign_subject_holds = ROOT
			}
		}
		
		trigger = {
			420 = { country_or_non_sovereign_subject_holds = ROOT }
			921 = { country_or_non_sovereign_subject_holds = ROOT }
			922 = { country_or_non_sovereign_subject_holds = ROOT }
		}
		
		effect = {
			412 = { add_permanent_claim = ROOT }
			413 = { add_permanent_claim = ROOT }
			414 = { add_permanent_claim = ROOT }
			416 = { add_permanent_claim = ROOT }
		}
	}
	
	A72_convince_the_criers = {
		icon = mission_rb_control_electors
		required_missions = { A72_secure_the_south }
		position = 3
		
		provinces_to_highlight = {
			OR = {
				province_id = 412
				province_id = 413
				province_id = 414
				province_id = 416
			}
			NOT = {
				country_or_non_sovereign_subject_holds = ROOT
			}
		}
		
		trigger = {  
		    if = {
			    limit = { ai = no }
			        412 = { country_or_non_sovereign_subject_holds = ROOT }
		            413 = { country_or_non_sovereign_subject_holds = ROOT }
		            414 = { country_or_non_sovereign_subject_holds = ROOT }
		            416 = { country_or_non_sovereign_subject_holds = ROOT }
		            dip_power = 100	
			}
			else = {
			    414 = { country_or_non_sovereign_subject_holds = ROOT }
		        416 = { country_or_non_sovereign_subject_holds = ROOT }
				dip_power = 100	
		    }
		}	
		
		effect = {
			vassalize = A86
			add_dip_power = -100
		}
    }
	
	A72_the_superior_defender = {
	    icon = mission_arabian_fort
		required_missions = { A72_convince_the_criers }
		position = 4
		
		trigger = {
			if = {
			    limit = {
					exists = A48
				}
				total_development = A48
				army_size = A48
				}
			else = {
			       total_development = 120
				   army_size = 20
		    }
		}   
		
		effect = {
		    315 = { add_permanent_claim = ROOT }
			319 = { add_permanent_claim = ROOT }
			918 = { add_permanent_claim = ROOT }
			919 = { add_permanent_claim = ROOT } 
			415 = { add_permanent_claim = ROOT }
			gnollsgate_area = {
				limit = {
					NOT = { is_core = ROOT }
					NOT = { owned_by = ROOT }
				}
				add_permanent_claim = ROOT
		    } 
			hawkfields_area = {
				limit = {
					NOT = { is_core = ROOT }
					NOT = { owned_by = ROOT }
				}
				add_permanent_claim = ROOT
		    }
		}	
	}		
	
	A72_unite_the_borders = {
	    icon = mission_crusade_for_varna
		required_missions = { A72_the_superior_defender }
		position = 5
		
		provinces_to_highlight = {
			OR = {
				province_id = 315
				province_id = 319
				province_id = 918 
				province_id = 919
				province_id = 415
				area = gnollsgate_area
				area = hawkfields_area
			}
			NOT = {
				country_or_non_sovereign_subject_holds = ROOT
			}
		}
		
		trigger = { 		
		    315 = { country_or_non_sovereign_subject_holds = ROOT }
			319 = { country_or_non_sovereign_subject_holds = ROOT }
			918 = { country_or_non_sovereign_subject_holds = ROOT } 
			919 = { country_or_non_sovereign_subject_holds = ROOT }
			415 = { country_or_non_sovereign_subject_holds = ROOT }
			gnollsgate_area = {
				type = all
				country_or_non_sovereign_subject_holds = ROOT
			}
			hawkfields_area = {
				type = all
				country_or_non_sovereign_subject_holds = ROOT
			}
		} 
	    
		effect = { 
		    the_borders_region = {
				limit = {
					NOT = { is_core = ROOT }
					NOT = { is_permanent_claim = ROOT }
				}
				add_permanent_claim = ROOT
			}
		}
	} 
	
	A72_drive_out_the_wexonards = {
	    icon = mission_empire
		required_missions = { A72_unite_the_borders }
		position = 6
		
		trigger = {
		    the_borders_region = {
			   type = all
			   
		    NOT = { owned_by = A30 }
		    }
		}
		
		effect = {
		    add_country_modifier = {
				name = arannen_driven_out_the_wexonards
				duration = 9125 #25 years
			}
		}
	}
	
	A72_solidify_our_hold_on_the_north = {
		icon = mission_war_chest
		required_missions = { A72_drive_out_the_wexonards }
		position = 7
		
		provinces_to_highlight = {
			OR = {
				province_id = 307
				area = wexhills_area
			}
			NOT = {
				country_or_non_sovereign_subject_holds = ROOT
			}
		}
		
		trigger = {  
		    307 = { country_or_non_sovereign_subject_holds = ROOT }
		    wexhills_area = {
				type = all
				country_or_non_sovereign_subject_holds = ROOT
			}
		    treasury = 500
		}
		effect = {
			vassalize = Z04
			add_treasury = -500
		}
	}
}	
	
A72_busilar = {
	slot = 3
	generic = no
	ai = yes
	potential = {
		tag = A72
	}
	has_country_shield = yes

    A72_leave_magdalaire_no_option = {
		icon = mission_conquer_50_development
		required_missions = {  }
		position = 2 
		
		provinces_to_highlight = {
			OR = {
				province_id = 332
				province_id = 923
				area = east_bisan_area
			}
			NOT = {
				country_or_non_sovereign_subject_holds = ROOT
			}
		}
		
		trigger = {  
		    332 = { country_or_non_sovereign_subject_holds = ROOT }
		    923 = { country_or_non_sovereign_subject_holds = ROOT }
		    east_bisan_area = {
				type = all
				country_or_non_sovereign_subject_holds = ROOT
			}
		    mil_power = 100	
		}
		effect = {
			vassalize = Z02
			add_mil_power = -100
		}
	}
	
	A72_united_by_faith = {
	    icon = mission_religious
		required_missions = { }
		position = 3
		
		trigger = {
		    religious_unity = 1
			stability = 1
			OR = {
			    current_age = age_of_absolutism
				current_age = age_of_revolutions
			}	
			temple = 10
		} 

	    effect = {
            add_country_modifier = {
				name = arannen_united_by_faith
				duration = -1
			}
		}	
	}
	
	A72_prepare_to_expand_beyond_the_empire = {
	    icon = mission_assemble_an_army
		required_missions = { A72_the_superior_defender }
		position = 5
		
		provinces_to_highlight = {
			OR = {
				area = gnollsgate_area
				area = hawkfields_area
			}
			NOT = {
				country_or_non_sovereign_subject_holds = ROOT
			}
		}
		
		trigger = {
		    if = {
			    limit = { ai = no }
			        army_size_percentage = 1
			        gnollsgate_area = {
				    type = all
				    country_or_non_sovereign_subject_holds = ROOT
			        }
			        hawkfields_area = {
				    type = all
				    country_or_non_sovereign_subject_holds = ROOT
			        }
				}
			else = {	
		        gnollsgate_area = {
				type = all
				country_or_non_sovereign_subject_holds = ROOT
			    }
			    hawkfields_area = {
				type = all
				country_or_non_sovereign_subject_holds = ROOT
			    }
				manpower_percentage = 0.5
			}
		}
		effect = {
		    add_casus_belli = {
					type = cb_restore_personal_union
					months = 300
					target = A29
		    }
		}
	} 
	
	A72_the_salt_lion_reigns_supreme = {
	    icon = mission_monarch_in_throne_room
		required_missions = { A72_prepare_to_expand_beyond_the_empire }
		position = 6
		
	    trigger = {
		    senior_union_with = A29
		}
		
		effect = {
		    add_country_modifier = {
				name = arannen_subjugated_busilar
				duration = 9125 #25 years
			}
			businor_region = {
				limit = {
					NOT = { is_core = ROOT }
					NOT = { owned_by = ROOT }
				}
				add_permanent_claim = ROOT
			}
		}
	}
}

A72_development = {
	slot = 4
	generic = no
	ai = yes
	potential = {
		tag = A72
	}
	has_country_shield = yes
	
	A72_comparable_to_the_western_cities = {
	    icon = mission_eastern_european_city
		required_missions = { }
		position = 1
		
		provinces_to_highlight = {
			OR = {
				province_id = 904
			}
		}
		
		trigger = {
		    if = {
			    limit = { ai = yes }
				owns_core_province = 904
			    904 = {
					development = 25
				}
			}	
			else = {
			    owns_core_province = 904
			    904 = {
					development = 30
					has_production_building_trigger = yes
					has_tax_building_trigger = yes
					has_trade_building_trigger = yes
			    }
			}	
		}

		effect = {
		    904 = {
		        add_permanent_province_modifier = {
					name = arannen_developing_arannen
					duration = -1
				}	
			}
		}	
	}
    
	A72_develop_the_countryside = {
	    icon = mission_rb_import_potatoes
		required_missions = { A72_comparable_to_the_western_cities }
		position = 2
		
		provinces_to_highlight = {
			OR = {
				province_id = 313
				province_id = 325
				province_id = 418
				province_id = 419
			}
		}
		
		trigger = {			
		    if = {
			    limit = {  ai = yes }
				owns_core_province = 313
			    owns_core_province = 325
			    owns_core_province = 418
			    owns_core_province = 419
			    313 = {
				    development = 8
			    }
			    325 = {
				    development = 8
			    }
			    418 = {
				    development = 8
			    }
			    419 = {
				    development = 8
			    }
			}
			else = {
			    owns_core_province = 313
			    owns_core_province = 325
			    owns_core_province = 418
			    owns_core_province = 419
			    313 = {
				    development = 12
			    }
			    325 = {
				    development = 12
			    }
			    418 = {
				    development = 12
			    }
			    419 = {
				    development = 12
		    	}
		    }
		} 
		
		effect = {
		    add_country_modifier = {
				name = arannen_recently_invested_in_the_countryside
				duration = 9125 #25 years
			}
		}    
	}

	A72_encourage_craftsmanship = {
	    icon = mission_have_manufactories
		required_missions = { A72_develop_the_countryside }
		position = 3
		
		provinces_to_highlight = {
			OR = {
			    province_id = 904
				province_id = 313
				province_id = 325
				province_id = 418
				province_id = 419
			}
		}
		
		trigger = {
		    313 = {
				owned_by = ROOT
				has_manufactory_trigger = yes
			}
			325 = {
				owned_by = ROOT
				has_manufactory_trigger = yes
			}
			418 = {
				owned_by = ROOT
				has_manufactory_trigger = yes
			}
			419 = {
				owned_by = ROOT
				has_manufactory_trigger = yes
			}
			904 = {
				owned_by = ROOT
				has_manufactory_trigger = yes
			}
		}
		
		effect = {
		    add_country_modifier = {
				name = arannen_country_of_craftsmen
				duration = -1
			}
		
		}
	}
	
	A72_the_anbenncost_of_the_east = {
	    icon = mission_arca_ore
		required_missions = { A72_encourage_craftsmanship }
		position = 4
		
		provinces_to_highlight = {
			OR = {
				province_id = 904
			}
		}
		
		trigger = {
		    904 = {
                owned_by = ROOT
				development = 50
			}	
			treasury = 500
        }

		effect = {
		    add_country_modifier = {
					name = arannen_anbenncost_of_the_east
					duration = -1
			}
			add_treasury = -500
			904 = {
				add_center_of_trade_level = 1
			}
		}	
	}
	
	A72_develop_our_port = {
	    icon = mission_hanseatic_city
		required_missions = { }
		position = 5
		
		provinces_to_highlight = {
			OR = {
				province_id = 413
			}
		}
		
		trigger = {			
			owns_core_province = 413
			413 = {
				development = 20
				has_trade_building_trigger = yes
			}
		}
		
		effect = {
            413 = {
                change_trade_goods = glass
        	}	
		}
	}

    A72_our_own_source_of_iron = {
	    icon = mission_cannons_firing
		required_missions = { A72_develop_our_port }
		position = 6
		
		provinces_to_highlight = {
			OR = {
				province_id = 316
				province_id = 317
			}
		}
		
		trigger = {
		    316 = {
				has_manufactory_trigger = yes
			}
	        317 = {
				has_manufactory_trigger = yes
			}
			owns_core_province = 316
			316 = {
				base_production = 8
			}
			owns_core_province = 317
			317 = {
				base_production = 8
			}
		}

        effect = {
            add_country_modifier = {
					name = arannen_source_of_iron
					duration = -1
			}
		}	
	}
	
	A72_develop_the_cities_of_the_borders = {
	    icon = mission_early_game_buildings
		required_missions = { A72_our_own_source_of_iron }
		position = 7
		
		provinces_to_highlight = {
			OR = {
				province_id = 904
				province_id = 417
				province_id = 413
				province_id = 294
			}
		}
		
		trigger = {
			owns_core_province = 904
			owns_core_province = 417
			owns_core_province = 413
			owns_core_province = 294
			904 = {
				development = 25
			}
			417 = {
				development = 25
			}
			413 = {
				development = 25
			}
			294 = {
				development = 25
			}
		}
		
		effect = {
            add_country_modifier = {
					name = arannen_grand_developers_of_the_east
					duration = -1
			}
		}
	}
}	

A72_daravan = {
	slot = 5
	generic = no
	ai = yes
	potential = {
		tag = A72
	}
	has_country_shield = yes
	
	A72_colonize_the_wisphollow = {
	    icon = mission_occupy_alexandria
		required_missions = { }
		position = 1
		
		trigger = {
		    manpower = 2
			adm_power = 50
			mil_power = 100
		}

        effect = {
        	add_manpower = -2
			add_adm_power = -50
			add_mil_power = -100	
			421 = { 
			    cede_province = A72
			}
			421 = { 
			    add_core = A72
			}
			421 = {
			    change_culture = ROOT
			}
			421 = {
			    change_religion = ROOT
			}	
			421 = {
				add_base_manpower = 2
			}
		}	
	}

	A72_prepare_expansion_into_the_folly = {
	    icon = mission_italian_condottiere
		required_missions = { A72_colonize_the_wisphollow }
		position = 2
		
		provinces_to_highlight = {
			OR = {
				province_id = 421
			}
		}
		
		trigger = {
		    if = {
			    limit = {  ai = no }
		        manpower = 5
			    adm_power = 100
			    421 = {
				    development = 8
			    }
			    421 = { owned_by = ROOT }
			}
            else = {
                manpower = 5
			    adm_power = 100
				421 = { owned_by = ROOT }
            }				
		}	 
		
		effect = {
		    add_manpower = -5
			add_adm_power = -100
		    add_country_modifier = {
				name = arannen_colonizers_of_the_folly
				duration = -1
			}		
		}
	}

	A72_continue_expanding_into_the_folly = {
	    icon = mission_portuguese_interference
		required_missions = { A72_prepare_expansion_into_the_folly }
		position = 3
		
		provinces_to_highlight = {
			OR = {
				province_id = 443
				province_id = 444
				province_id = 445
			}
			NOT = {
				country_or_non_sovereign_subject_holds = ROOT
			}
		}
		
		trigger = {
		    mil_power = 100
			treasury = 100
			443 = { owned_by = ROOT }
			444 = { owned_by = ROOT }
			445 = { owned_by = ROOT }
		}
		
		effect = {
		    add_mil_power = -100
			add_treasury = -100
			add_country_modifier = {
					name = arannen_push_into_the_folly
					duration = 9125
			}
		}	
	}	
	
	A72_resettle_the_folly = {
	    icon = mission_colonial
		required_missions = { A72_continue_expanding_into_the_folly }
		position = 4
		
		provinces_to_highlight = {
			OR = {
				province_id = 442
				province_id = 443
				province_id = 444
				province_id = 445
				province_id = 446
				province_id = 447
				province_id = 448
				province_id = 449
				province_id = 450
			}
			NOT = {
				country_or_non_sovereign_subject_holds = ROOT
			}
		}
		
		trigger = {
		    manpower = 1
			dip_power = 100
		    adm_power = 100
		    mil_power = 100
			treasury = 250
			442 = { owned_by = ROOT }
			443 = { owned_by = ROOT }
			444 = { owned_by = ROOT }
			445 = { owned_by = ROOT }
			446 = { owned_by = ROOT }
			447 = { owned_by = ROOT }
			448 = { owned_by = ROOT }
			449 = { owned_by = ROOT }
			450 = { owned_by = ROOT }
		}
		
		effect = {
		    add_manpower = -1
		    add_adm_power = -100
			add_dip_power = -100
			add_mil_power = -100
			add_treasury = -250
			442 = { 
			    add_base_tax = 1
				add_base_production = 1
				add_base_manpower = 1
				change_culture = ROOT
				change_religion = ROOT
			}
			443 = { 
			    add_base_tax = 1
				add_base_production = 1
				add_base_manpower = 1
				change_culture = ROOT
				change_religion = ROOT
			}
			444 = { 
			    add_base_tax = 1
				add_base_production = 1
				add_base_manpower = 1
				change_culture = ROOT
				change_religion = ROOT
			}
			445 = { 
			    add_base_tax = 1
				add_base_production = 1
				add_base_manpower = 1
				change_culture = ROOT
				change_religion = ROOT
			}
			446 = { 
			    add_base_tax = 1
				add_base_production = 1
				add_base_manpower = 1
				change_culture = ROOT
				change_religion = ROOT
			}
			447 = { 
			    add_base_tax = 1
				add_base_production = 1
				add_base_manpower = 1
				change_culture = ROOT
				change_religion = ROOT
			}
			448 = { 
			    add_base_tax = 1
				add_base_production = 1
				add_base_manpower = 1
				change_culture = ROOT
				change_religion = ROOT
			}
			449 = { 
			    add_base_tax = 1
				add_base_production = 1
				add_base_manpower = 1
				change_culture = ROOT
				change_religion = ROOT
			}
			450 = { 
			    add_base_tax = 1
				add_base_production = 1
				add_base_manpower = 1
				change_culture = ROOT
				change_religion = ROOT
			}
		}	
	}

	A72_loot_nathalaire = {
	    icon = mission_impaled_soldies
		required_missions = { A72_resettle_the_folly }
		position = 5
		
		provinces_to_highlight = {
			AND = {
				province_id = 451
				province_id = 904
			}
			NOT = {
				country_or_non_sovereign_subject_holds = ROOT
			}
		}
		
		trigger = {
		    451 = {
			 owned_by = A72
			}
			904 = {
			 owned_by = A72
			}
		}

        effect = {
            451 = { 
			    add_base_tax = -6
				add_base_production = -6
				add_base_manpower = -6
				add_devastation = 50
			}
			904 = { 
			    add_base_tax = 5
				add_base_production = 5
				add_base_manpower = 5
			}		
		}
	}
}	