A47_cannor = {
    slot = 1            
    generic = no
    ai = yes	               
    potential = {
        tag = A47
    }
	has_country_shield = yes

    eborthil_prepare_busilari_campaign = {
        icon = mission_consolidate_the_state
        required_missions = {  }
		position = 1

        trigger = {
            army_size_percentage = 0.9
        }
        
        effect = {
            busilari_straits_area = {
				limit = {
					NOT = { is_core = ROOT }
					NOT = { owned_by = ROOT }
				}
				add_permanent_claim = ROOT
			}
			add_country_modifier = {
				name = eborthil_ready_to_fight_a
				duration = 7300 #20 Years
			}
        }
	}
	
	eborthil_seize_the_straits = {
        icon = reclaim_the_aegean
        required_missions = { eborthil_prepare_busilari_campaign }
		position = 2
        
        provinces_to_highlight = {
            area = busilari_straits_area
			NOT = {
				country_or_non_sovereign_subject_holds = ROOT
			}
        }

        trigger = {
            busilari_straits_area = {
				type = all
				country_or_non_sovereign_subject_holds = ROOT
			}
        }
        
        effect = {
            busilar_area = {
				limit = {
					NOT = { is_core = ROOT }
					NOT = { owned_by = ROOT }
				}
				add_permanent_claim = ROOT
			}
			lorbet_area = {
				limit = {
					NOT = { is_core = ROOT }
					NOT = { owned_by = ROOT }
				}
				add_permanent_claim = ROOT
			}
        }
	}
	
	eborthil_press_advantage = {
        icon = the_latin_empire
        required_missions = { eborthil_seize_the_straits }
		position = 3
        
        provinces_to_highlight = {
            OR = {
				area = busilar_area
				area = lorbet_area
			}
			NOT = {
				country_or_non_sovereign_subject_holds = ROOT
			}
        }

        trigger = {
            busilar_area = {
				type = all
				country_or_non_sovereign_subject_holds = ROOT
			}
			lorbet_area = {
				type = all
				country_or_non_sovereign_subject_holds = ROOT
			}
        }
        
        effect = {
            A29 = {
			    every_owned_province = {
				    add_claim = ROOT
				}
			}	
        }
	}
	
	eborthil_the_bronze_hill_of_busilar = {
        icon = mission_burning_castle
        required_missions = { eborthil_press_advantage }
		position = 4
        
        provinces_to_highlight = {
            province_id = 367
        }

        trigger = {
            367 = {
			    owned_by = ROOT
			}
        }
        
        effect = {
		    add_treasury = 50
            367 = {
			    add_devastation = 50
				add_base_tax = -2
				add_base_production = -3
				add_base_manpower = -2
			}
			380 = {
			    add_base_tax = 1
				add_base_manpower = 1
			}
            369 = {
                add_base_production = 1
			}
			35 = {
			    add_base_production = 1
				add_base_tax = 1
			}
			379 = {
			    add_base_manpower = 1
			}
			36 = {
			    add_base_production = 1
			}
			custom_tooltip = eborthil_looting_of_busilar
			hidden_effect = {
    			every_owned_province = {
	    		    limit = {
		    		    culture = busilari
			    	}
				    add_unrest = 2
			    }
            }
		}
	}
	
	eborthil_king_of_businor = {
        icon = dreams_of_grandeur
        required_missions = { eborthil_the_bronze_hill_of_busilar }
		position = 5

        trigger = {
            NOT = { exists = A29 }
        }
        
        effect = {
            add_prestige = 50
			add_mil_power = 100
        }
	}
	
	eborthil_eborthili_supremacy = {
        icon = mission_rb_conquer_bengal
        required_missions = { eborthil_king_of_businor
                              eborthil_unite_northern_akan }
		position = 6
		
		provinces_to_highlight = {
            province_id = 380
        }

        trigger = {
            home_trade_node = {
				trade_share = {
					country = ROOT
					share = 50
				}
			}
			380 = {
			    has_trade_building_trigger = yes
			}	
        }
        
        effect = {
            39 = {
			    add_province_modifier = {
					name = eborthil_stonegaze_toll
					duration = -1
				}
			}
			379 = {
			    add_province_modifier = {
					name = eborthil_stonegaze_toll
					duration = -1
				}
				center_of_trade = 1
			}
			380 = {
			    add_center_of_trade_level = 1
			}	
        }
	}
	
	eborthil_reapproach_the_vernman = {
        icon = mission_candide_letter
        required_missions = { eborthil_eborthili_supremacy }
		position = 7

        trigger = {
            OR = {
			    NOT = { exists = A33 }
			    alliance_with = A33
				is_rival = A33
			}	
        }
        
        effect = {
            if = {
			    limit = {
				    OR = {
    				    NOT = { exists = A33 }
						is_rival = A33
					}
				}
				14 = {
					add_permanent_claim = ROOT
				}
			}
			else = {
				14 = {
					add_permanent_claim = A33
				}
				A33 = {
					declare_war_with_cb = {
                        who = A11
                        casus_belli = cb_conquest
						war_goal_province = 14
                    }
				}
			}
        }
	}
	
	eborthil_from_anbbencost_to_brasan = {
        icon = mission_entrepot_of_india
        required_missions = { eborthil_reapproach_the_vernman }
		position = 8
        
        provinces_to_highlight = {
            province_id = 14
        }

        trigger = {
            OR = {
		        14 = {
				    owned_by = ROOT
				}
				14 = {
				    owned_by = A33
				}
			}
        }
        
        effect = {
		    add_mercantilism = 10
            add_country_modifier = {
				name = eborthil_divenhal_supremacy
				duration = -1
			}
        }
	}
}

A47_akan = {
    slot = 2
    generic = no
    ai = yes
    potential = {
        tag = A47
    }
	has_country_shield = yes
	
	eborthil_the_gnoll_threat = {
        icon = mission_monarch_diplomacy
        required_missions = {  }
		position = 1

        trigger = {
            F06 = {
                has_opinion = {
	            who = ROOT
	            value = 100
                }
			}
		}	
        
        effect = {
            akan_mountains_area = {
				limit = {
					NOT = { is_core = ROOT }
					NOT = { owned_by = ROOT }
				}
				add_permanent_claim = ROOT
			}
			middle_akan_area = {
				limit = {
					NOT = { is_core = ROOT }
					NOT = { owned_by = ROOT }
				}
				add_permanent_claim = ROOT
			}
        }
	}
	
	eborthil_akani_liberation = {
        icon = mission_levantine_restoration
        required_missions = { eborthil_the_gnoll_threat }
		position = 2
        
        provinces_to_highlight = {
            OR = {
				area = akan_mountains_area
				area = middle_akan_area
			}
			NOT = {
				country_or_non_sovereign_subject_holds = ROOT
			}
        }

        trigger = {
            akan_mountains_area = {
				type = all
				country_or_non_sovereign_subject_holds = ROOT
			}
			middle_akan_area = {
				type = all
				country_or_non_sovereign_subject_holds = ROOT
			}
        }
        
        effect = {
            ekha_area = {
				limit = {
					NOT = { is_core = ROOT }
					NOT = { owned_by = ROOT }
				}
				add_permanent_claim = ROOT
			}
			akarat_area = {
				limit = {
					NOT = { is_core = ROOT }
					NOT = { owned_by = ROOT }
				}
				add_permanent_claim = ROOT
			}
			akan_isles_area = {
				limit = {
					NOT = { is_core = ROOT }
					NOT = { owned_by = ROOT }
				}
				add_permanent_claim = ROOT
			}
        }
	}
	
	eborthil_the_final_push = {
        icon = mission_heated_battle
        required_missions = { eborthil_akani_liberation }
		position = 3
       
        provinces_to_highlight = {
           OR = {
				area = ekha_area
				area = akarat_area
				area = akan_isles_area
			}
			NOT = {
				country_or_non_sovereign_subject_holds = ROOT
			}
        }

        trigger = {
            ekha_area = {
				type = all
				country_or_non_sovereign_subject_holds = ROOT
			}
			akarat_area = {
				type = all
				country_or_non_sovereign_subject_holds = ROOT
			}
			akan_isles_area = {
				type = all
				country_or_non_sovereign_subject_holds = ROOT
			}
        }
        
        effect = {
            country_event = { id = eborthil.1 }
        }
	}
	
	eborthil_chase_off_the_gnolls = {
        icon = mission_torch_fire
        required_missions = { eborthil_the_final_push }
    	position = 4

        trigger = {
            mil_power = 150
			treasury = 500
        }
        
        effect = {
            add_mil_power = -150
			add_treasury = -500
			custom_tooltip = eborthil_gnolls_purge
			hidden_effect = {
    			F06 = {
	    		   every_owned_province = {
		    		    limit = {
			    	        region = akan_region
				            culture = west_sandfang_gnoll
				        }
    					add_devastation = 50
	    				change_culture = desha
		    		}
			    }
			    A47 = {
			        every_owned_province = {
				        limit = {
				            region = akan_region
				            culture = west_sandfang_gnoll
				        }
					    add_devastation = 50
				    	change_culture = desha
				    }
				}
			}
        }
	}
	
	eborthil_unite_northern_akan = {
        icon = reform_bergordnung
        required_missions = { eborthil_chase_off_the_gnolls }
		position = 5

        trigger = {
            NOT = { exists = F06 }
        }
        
        effect = {
            add_prestige = 50
			add_dip_power = 50
        }
	}
	
	eborthil_exploit_the_mother = {
        icon = mission_mechanical_mining
        required_missions = { eborthil_unite_northern_akan }
		position = 6
        
        provinces_to_highlight = {
		    OR = {
				province_id = 383
				province_id = 393
				province_id = 397
				province_id = 401
			}
			NOT = {
				country_or_non_sovereign_subject_holds = ROOT
			}
        }

        trigger = {
            383 = {
			    has_production_building_trigger = yes
			}
			393 = {
			    has_production_building_trigger = yes
			}
			397 = {
			    has_production_building_trigger = yes
			}
			401 = {
			    has_production_building_trigger = yes
			}
        }
        
        effect = {
            add_country_modifier = {
				name = eborthil_iron_boom
				duration = 7300 #20 Years
			}
			isle_of_tef_area = {
			    add_base_production = 3
			}
        }
	}
}

A47_cash = {
    slot = 3
    generic = no
    ai = yes
    potential = {
        tag = A47
    }
	has_country_shield = yes
	
	eborthil_islands_of_the_flooded_coast = {
        icon = mission_combat_barbary_piracy
        required_missions = { eborthil_build_up_naval_force }
		position = 2
        
        provinces_to_highlight = {
            OR = {
				province_id = 451
				province_id = 452
			}
			NOT = {
				country_or_non_sovereign_subject_holds = ROOT
			}
        }

        trigger = {
            451 = {
			    owned_by = ROOT
			}
			452 = {
			    owned_by = ROOT
			}
        }
        
        effect = {
            add_country_modifier = {
				name = eborthil_profits_from_swamp_islands
				duration = 3650 #10 Years
			}
        }
	}
	
	eborthil_dealing_with_the_pirates = {
        icon = sources_of_trade
        required_missions = { eborthil_islands_of_the_flooded_coast }
		position = 3
        
        provinces_to_highlight = {
            province_id = 451
        }

        trigger = {
			if = {
				limit = { has_estate = estate_burghers }
				estate_loyalty = {
					estate = estate_burghers
					loyalty = 50
				}
				treasury = 100
			}
			else = {
				treasury = 200
			}
        }
        
        effect = {
			if = {
				limit = { has_estate = estate_burghers }
				add_treasury = -100
				add_estate_loyalty = {
					estate = estate_burghers
					loyalty = -10
				}
			}
			else = {
				add_treasury = -200
			}
			451 = {
				add_devastation = 50
				add_base_tax = -6
				add_base_production = -6
				add_base_manpower = -6
			}
			379 = {
			    change_trade_goods = paper
				add_base_tax = 1
			    add_base_production = 1
				add_base_manpower = 1
			}
			isle_of_tef_area = {
			    add_base_tax = 1
			    add_base_production = 1
				add_base_manpower = 1
			}
        }
	}
	
	eborthil_the_banks_and_the_arts = {
        icon = reform_the_monte
        required_missions = { eborthil_dealing_with_the_pirates }
		position = 4

        trigger = {
            is_institution_enabled = renaissance
			OR = {
			    has_institution = renaissance
				dip_power = 150
			}
        }
        
        effect = {
		    if = {
			    limit = { NOT = { has_institution = renaissance } }
				add_dip_power = -150
				isle_of_tef_area = {
			        add_institution_embracement = {
                    	which = renaissance
                    	value = 100
                    }
				}
			}
            380 = {
			    add_province_modifier = {
					name = eborthil_banks_invest_in_the_arts
					duration = -1
				}
			}
        }
	}
	
	eborthil_invest_in_a_trade_fleet = {
        icon = secure_the_republic
        required_missions = { eborthil_the_banks_and_the_arts }
		position = 5

        trigger = {
            num_of_light_ship = 20
        }
        
        effect = {
            add_country_modifier = {
				name = eborthil_trade_fleet
				duration = 18250 #50 Years
			}
        }
	}
	
	eborthil_rein_in_the_banks = {
        icon = reform_the_nomocanon
        required_missions = { eborthil_invest_in_a_trade_fleet
                              eborthil_naval_saboteurs }
		position = 6
        
        provinces_to_highlight = {
            province_id = 379
        }

        trigger = {
            379 = {
			    owned_by = ROOT
				has_building = courthouse
			}
        }
        
        effect = {
            isle_of_tef_area = {
			    add_province_modifier = {
					name = eborthil_centralized_investments
					duration = -1
				}
			}
			add_treasury = 200
			add_estate_loyalty = {
                estate = estate_nobles
                loyalty = -15
            }
        }
	}
	
	eborthil_the_eborthili_arsenal = {
        icon = africa_proconsulare
        required_missions = { eborthil_exploit_the_mother
                              eborthil_rein_in_the_banks	
							  eborthil_expand_the_tef_mines }
		position = 7
        
        provinces_to_highlight = {
            OR = {
				province_id = 35
				province_id = 36
				province_id = 369
				province_id = 379
				province_id = 380
			}
        }

        trigger = {
            35 = {
			    owned_by = ROOT
				OR = {
			    	has_building = shipyard
					has_building = grand_shipyard
				}
			}
			36 = {
			    owned_by = ROOT
				OR = {
			    	has_building = shipyard
					has_building = grand_shipyard
				}
			}
			369 = {
			    owned_by = ROOT
				OR = {
			    	has_building = shipyard
					has_building = grand_shipyard
				}
			}
			379 = {
			    owned_by = ROOT
				OR = {
			    	has_building = shipyard
					has_building = grand_shipyard
				}
			}
			380 = {
			    owned_by = ROOT
				OR = {
			    	has_building = shipyard
					has_building = grand_shipyard
				}
			}
        }
        
        effect = {
            isle_of_tef_area = {
			    add_province_modifier = {
					name = eborthil_the_eborthili_arsenal
					duration = -1
				}
			}
        }
	}
}

A47_navy = {
    slot = 4
    generic = no
    ai = yes
    potential = {
        tag = A47
    }
	has_country_shield = yes
	
	eborthil_build_up_naval_force = {
        icon = imperial_navy
        required_missions = {  }
		position = 1

        trigger = {
            navy_size_percentage = 0.9
        }
        
        effect = {
		    add_country_modifier = {
				name = eborthil_ready_to_fight_n
				duration = 7300 #20 Years
			}
            451 = {
				if = {
					limit = {
						NOT = {
							country_or_non_sovereign_subject_holds = ROOT
						}
					}
					add_permanent_claim = ROOT
				}
			}
			452 = {
				if = {
					limit = {
						NOT = {
							country_or_non_sovereign_subject_holds = ROOT
						}
					}
					add_permanent_claim = ROOT
				}
			}
			581 = {
				if = {
					limit = {
						NOT = {
							country_or_non_sovereign_subject_holds = ROOT
						}
					}
					add_permanent_claim = ROOT
				}
			}
			533 = {
				if = {
					limit = {
						NOT = {
							country_or_non_sovereign_subject_holds = ROOT
						}
					}
					add_permanent_claim = ROOT
				}
			}
			582 = {
				if = {
					limit = {
						NOT = {
							country_or_non_sovereign_subject_holds = ROOT
						}
					}
					add_permanent_claim = ROOT
				}
			}
        }
	}
	
	eborthil_the_islands_of_bulwar = {
        icon = mission_fleet_arrival
        required_missions = { eborthil_build_up_naval_force }
		position = 2
        
        provinces_to_highlight = {
            OR = {
				province_id = 581
				province_id = 533
				province_id = 582
			}
			NOT = {
				country_or_non_sovereign_subject_holds = ROOT
			}
        }

        trigger = {
            581 = {
			    owned_by = ROOT
			}
			533 = {
			    owned_by = ROOT
			}
			582 = {
			    owned_by = ROOT
			}
        }
        
        effect = {
		    add_prestige = 20
            add_country_modifier = {
				name = eborthil_victory_in_bulwar
				duration = 3650 #10 Years
			}
        }
	}
	
	eborthil_create_tradathils = {
        icon = secure_dejima
        required_missions = { eborthil_islands_of_the_flooded_coast
		                      eborthil_the_islands_of_bulwar
                              eborthil_a_trade_monopoly }
		position = 3

        trigger = {
            treasury = 400
        }
        
        effect = {
		    add_treasury = -400
            451 = {
			    add_center_of_trade_level = 1
			}
			496 = {
			    add_center_of_trade_level = 1
			}
			452 = {
			    add_province_modifier = {
					name = eborthil_tefori_trade_post
					duration = -1
				}
			}
			581 = {
			    add_province_modifier = {
					name = eborthil_tefori_trade_post
					duration = -1
				}
			}
			533 = {
			    add_province_modifier = {
					name = eborthil_tefori_trade_post
					duration = -1
				}
			}
			582 = {
			    add_province_modifier = {
					name = eborthil_tefori_trade_post
					duration = -1
				}
			}
			494 = {
			    add_province_modifier = {
					name = eborthil_tefori_trade_post
					duration = -1
				}
			}
        }
	}
	
	eborthil_expand_the_squadrons = {
        icon = neapolitan_govenance
        required_missions = { eborthil_create_tradathils }
		position = 4

        trigger = {
            impressment_offices = 3
        }
        
        effect = {
            add_country_modifier = {
				name = eborthil_expanded_goldwaters_recruitment
				duration = -1
			}
        }
	}
	
	eborthil_naval_saboteurs = {
        icon = mission_assassination
        required_missions = { eborthil_expand_the_squadrons }
		position = 5
        
        provinces_to_highlight = {
          
        }

        trigger = {
            OR = {
			    dock = 5
				drydock = 5
			}
        }
        
        effect = {
            add_country_modifier = {
				name = eborthil_specialized_saboteurs
				duration = -1
			}
        }
	}
	
	eborthil_expand_the_tef_mines = {
        icon = mission_smith
        required_missions = { eborthil_the_copper_dwarves }
		position = 6
        
        provinces_to_highlight = {
            OR = {
				province_id = 35
				province_id = 369
			}
        }

        trigger = {
		    treasury = 150
			369 = {
			    has_production_building_trigger = yes
				has_manufactory_trigger = yes
			}
        }
        
        effect = {
		    add_treasury = -150
            35 = {
			    add_province_modifier = {
					name = eborthil_expansion_of_mines
					duration = -1
				}
			}
			369 = {
			    add_province_modifier = {
					name = eborthil_expansion_of_mines
					duration = -1
				}
			}
        }
	}
	
	eborthil_the_goldwaters_school = {
        icon = mission_writing_book
        required_missions = { eborthil_expand_the_tef_mines }
		position = 7
        
        provinces_to_highlight = {
            province_id = 36
        }

        trigger = {
		    treasury = 500
			dip_power = 100
			mil_power = 100
            36 = {
			    development = 20
				has_building = university
			}
        }
        
        effect = {
            add_treasury = -500
			add_dip_power = -100
			add_mil_power = -100
			35 = {
			    add_province_modifier = {
					name = eborthil_goldwaters_school
					duration = -1
				}
			}
        }
	}
	
	eborthil_eborthil_rules_the_waves = {
        icon = mission_rb_scottish_north_sea_trade
        required_missions = { eborthil_the_eborthili_arsenal
                              eborthil_the_goldwaters_school
                              eborthil_a_shining_jewel }
		position = 8

        trigger = {
            num_of_heavy_ship = 50
			NOT = {
			    any_country = {
				    navy_size = ROOT
				}
			}
        }
        
        effect = {
            add_country_modifier = {
				name = eborthil_rules_the_waves
				duration = -1
			}
			set_government_rank = 3
			add_prestige = 50
        }
	}
}

A47_development = {
    slot = 5
    generic = no
    ai = yes
    potential = {
        tag = A47
    }
	has_country_shield = yes
	
	eborthil_an_alliance_with_the_cats = {
        icon = mission_discussion_arch
        required_missions = {  }
		position = 1

        trigger = {
            OR = {
			    NOT = { exists = F01 }
			    alliance_with = F01
				is_rival = F01
				F01 = {
    				has_opinion = {
	                    who = ROOT
	                    value = 100
                    }
				}
			}
        }
        
        effect = {
		    elizna_area = {
			    limit = {
			        NOT = { is_core = ROOT }
			        NOT = { owned_by = ROOT }
           		}
		        add_permanent_claim = ROOT
			}
            if = {
			    limit = {
				    NOT = {
				        is_rival = F01
					}
				}
				create_alliance = F01
			}
			#else = {
				#always = yes
			#}
        }
	}
	
	eborthil_a_trade_monopoly = {
        icon = mission_raid_on_venice
        required_missions = { eborthil_an_alliance_with_the_cats }
		position = 2
        
        provinces_to_highlight = {
            area = elizna_area
			NOT = {
				country_or_non_sovereign_subject_holds = ROOT
			}
        }

        trigger = {
            elizna_area = {
				type = all
				country_or_non_sovereign_subject_holds = ROOT
			}
        }
        
        effect = {
		    add_mercantilism = 5
            add_country_modifier = {
				name = eborthil_trade_monopoly
				duration = 18250 #50 Years
			}
        }
	}
	
	eborthil_elven_tecelans = {
        icon = purely_for_commerce
        required_missions = { eborthil_a_trade_monopoly }
		position = 3
        
        provinces_to_highlight = {
            area = elizna_area
        }

        trigger = {
            treasury = 200
			494 = {
			    owned_by = ROOT
			}
			496 = {
			    owned_by = ROOT
			}
        }
        
        effect = {
            add_treasury = -200
			elizna_area = {
			    add_base_tax = -2
			    add_base_production = -2
				add_base_manpower = -2
			}
			36 = {
			    change_trade_goods = cloth
				add_base_tax = 1
			    add_base_production = 1
			}
			isle_of_tef_area = {
			    add_elven_minority_size_effect = yes
			    add_base_tax = 1
				add_base_manpower = 1
			}
        }
	}
	
	eborthil_impregnable_island = {
        icon = fortify_malta
        required_missions = { eborthil_elven_tecelans }
		position = 4

        trigger = {
            mil_power = 100
        }
        
        effect = {
		    add_mil_power = -100
			custom_tooltip = eborthil_unlock_defensive_decisions
		    set_country_flag = eborthil_reinforce_the_home_isles
		}
	}
	
	eborthil_the_copper_dwarves = {
        icon = subiaco_press
        required_missions = { eborthil_impregnable_island }
		position = 5

        trigger = {
		    treasury = 200 
            OR = {
		        NOT = { exists = F23 }
			    alliance_with = F23
				is_rival = F23
				has_opinion = {
	                who = F23
	                value = 100
                }
			}
        }
        
        effect = {
            add_treasury = -200
			35 = {
			    add_dwarven_minority_size_effect = yes
				add_base_production = 1
			}
			369 = {
			    add_dwarven_minority_size_effect = yes
				add_base_production = 1
			}
        }
	}
	
	eborthil_eborthili_bombardiers = {
        icon = mission_mithril_cannons
        required_missions = { eborthil_the_copper_dwarves }
		position = 6

        trigger = {
            mil_power = 100
        }
        
        effect = {
            add_mil_power = -100
			add_country_modifier = {
				name = eborthil_bombs_away
				duration = -1
			}
        }
	}
	
	eborthil_a_shining_jewel = {
        icon = mission_rb_scottish_conquer_london
        required_missions = { eborthil_eborthili_bombardiers }
		position = 7

        trigger = {
            isle_of_tef_area = {
			    type = all
			    development = 30
			}
        }
        
        effect = {
            add_country_modifier = {
				name = eborthil_jewel_of_the_middle_divenhal
				duration = -1
			}
			isle_of_tef_area = {
			    add_province_modifier = {
					name = eborthil_shining_jewel
					duration = -1
				}
			}
        }
	}
}

A47_exploration = {
    slot = 2
    generic = no
    ai = yes
    potential = {
        tag = A47
    }
	has_country_shield = yes
	
	eborthil_beyond_the_divenhal = {
        icon = colonize_the_cape
        required_missions = {  }
		position = 8

        trigger = {
            has_idea_group = exploration_ideas
			has_idea = quest_for_the_new_world
        }
        
        effect = {
            add_country_modifier = {
				name = eborthil_exploration_voyages
				duration = 10950 #30 years
			}
        }
	}
	
	eborthil_head_south = {
        icon = mission_look_west
        required_missions = { eborthil_beyond_the_divenhal }
		position = 9
        
        provinces_to_highlight = {
            area = salahad_islands_area
			NOT = {
				country_or_non_sovereign_subject_holds = ROOT
			}
        }

        trigger = {
            salahad_islands_area = {
				type = any
				country_or_non_sovereign_subject_holds = ROOT
			}
        }
        
        effect = {
            add_country_modifier = {
				name = eborthil_the_first_steps
				duration = 3650 #10 Years
			}
        }
	}
	
	eborthil_TBD = {
        icon = mission_launch_a_flagship
        required_missions = { eborthil_head_south }
		position = 10
        
        provinces_to_highlight = {
          
        }

        trigger = {

        }
        
        effect = {
        
        }
	}
}

A47_aelantir = {
    slot = 3
    generic = no
    ai = yes
    potential = {
        tag = A47
    }
	has_country_shield = yes
	
	eborthil_the_lost_continent = {
        icon = mission_retake_ceuta
        required_missions = { eborthil_beyond_the_divenhal }
		position = 9

        trigger = {
            custom_trigger_tooltip = {
				tooltip = aelantir_discovery.tooltip
				OR = {
					colonial_endralliande = {
						has_discovered = ROOT
					}
				}
			}
        }
        
        effect = {
            add_country_modifier = {
				name = colonial_enthusiasm
				duration = 7300 #20 years
			}
        }
	}
	
	eborthil_new_jurith = {
        icon = mission_rb_conquer_the_isles
        required_missions = { eborthil_the_lost_continent }
		position = 10
        
        provinces_to_highlight = {
            colonial_region = colonial_endralliande
			NOT = { country_or_non_sovereign_subject_holds = ROOT }
			has_discovered = yes
        }

        trigger = {
            custom_trigger_tooltip = {
				tooltip = tooltip_colony_in_endralliande
				num_of_provinces_owned_or_owned_by_non_sovereign_subjects_with = {
					value = 5
					colonial_region = colonial_endralliande
					is_city = yes
				}
			}
        }
        
        effect = {
            add_country_modifier = {
				name = eborthil_colonial_venture
				duration = 7300 #20 years
			}
        }
	}
	
	eborthil_the_nurmipi_purchase = {
        icon = mission_portuguese_malabar
        required_missions = { eborthil_new_jurith }
		position = 11
        
        provinces_to_highlight = {
            province_id = 2232
        }

        trigger = {
            2232 = {
			    country_or_non_sovereign_subject_holds = ROOT
			}
        }
        
        effect = {
            2232 = {
			    add_building = fort_15th
				add_permanent_province_modifier = {
					name = eborthil_swamp_outpost
					duration = -1
				}
			}
			
        }
	}
	
	eborthil_island_hopping = {
        icon = mission_claim_the_canaries
        required_missions = { eborthil_the_nurmipi_purchase }
		position = 12
        
        provinces_to_highlight = {
            OR = {
				province_id = 2241
				province_id = 2253
			}
			NOT = {
				country_or_non_sovereign_subject_holds = ROOT
			}
        }

        trigger = {
            2241 = {
			    country_or_non_sovereign_subject_holds = ROOT
			}
			2253 = {
			    country_or_non_sovereign_subject_holds = ROOT
			}
        }
        
        effect = {
            severed_coast_region = {
				limit = {
					NOT = { is_core = ROOT }
					NOT = { owned_by = ROOT }
				}
				add_permanent_claim = ROOT
			}
        }
	}
	
	eborthil_taychendi_trade = {
        icon = mission_expand_textile_industry
        required_missions = { eborthil_island_hopping }
		position = 13
        
        provinces_to_highlight = {
            province_id = 2328
        }

        trigger = {
		    2328 = {
			    country_or_non_sovereign_subject_holds = ROOT
			}
            custom_trigger_tooltip = {
				tooltip = tooltip_colony_in_lai_peninsula
				num_of_provinces_owned_or_owned_by_non_sovereign_subjects_with = {
					value = 10
					colonial_region = colonial_lai_peninsula
					is_city = yes
				}
			}
			any_country = {
			    culture_group = taychendi_ruinborn_elf
                has_opinion = {
	                who = ROOT
                    value = 100
			    }
            }
        }
        
        effect = {
            add_country_modifier = {
				name = eborthil_trading_with_the_taychend
				duration = 10950 #30 years
			}
        }
	}
}

A47_western_aelantir = {
    slot = 4
    generic = no
    ai = yes
    potential = {
        tag = A47
    }
	has_country_shield = yes
	
	eborthil_base_of_operations = {
        icon = mission_caribbean_cn
        required_missions = { eborthil_new_jurith }
		position = 11
        
        provinces_to_highlight = {
            province_id = 1083
        }

        trigger = {
            1083 = {
			    country_or_non_sovereign_subject_holds = ROOT
			}
        }
        
        effect = {
            ruined_isles_region = {
				limit = {
					NOT = { is_core = ROOT }
					NOT = { owned_by = ROOT }
				}
				add_permanent_claim = ROOT
			}
			west_vanburia_area = {
				limit = {
					NOT = { is_core = ROOT }
					NOT = { owned_by = ROOT }
				}
				add_permanent_claim = ROOT
			}
			north_vanburia_area = {
				limit = {
					NOT = { is_core = ROOT }
					NOT = { owned_by = ROOT }
				}
				add_permanent_claim = ROOT
			}
			east_vanburia_area = {
				limit = {
					NOT = { is_core = ROOT }
					NOT = { owned_by = ROOT }
				}
				add_permanent_claim = ROOT
			}
        }
	}
	
	eborthil_nur_eborthil = {
        icon = mission_rb_into_ireland
        required_missions = { eborthil_base_of_operations }
		position = 12
        
        provinces_to_highlight = {
            OR = {
				area = west_vanburia_area
				area = north_vanburia_area
				area = east_vanburia_area
			}
			NOT = {
				country_or_non_sovereign_subject_holds = ROOT
			}
        }

        trigger = {
            west_vanburia_area = {
				type = all
				country_or_non_sovereign_subject_holds = ROOT
			}
			north_vanburia_area = {
				type = all
				country_or_non_sovereign_subject_holds = ROOT
			}
			east_vanburia_area = {
				type = all
				country_or_non_sovereign_subject_holds = ROOT
			}
        }
        
        effect = {
            add_adm_power = 50
        }
	}
	
	eborthil_establishing_contact = {
        icon = mission_magic_tower
        required_missions = { eborthil_nur_eborthil }
		position = 13

        trigger = {
		    treasury = 125
            any_country = {
			    culture_group = kheionai_ruinborn_elf
                has_opinion = {
	                who = ROOT
                    value = 125
			    }
            }
        }
        
        effect = {
		    add_treasury = -125
			add_country_modifier = {
				name = eborthil_kheionai_contacts
				duration = -1
			}
        }
	}
}

A47_heart = {
    slot = 5
    generic = no
    ai = yes
    potential = {
        tag = A47
    }
	has_country_shield = yes
	
	eborthil_the_heart_of_aelantir = {
        icon = mission_steer_trade_to_bengal
        required_missions = { eborthil_base_of_operations }
		position = 12
        
        provinces_to_highlight = {
            OR = {
				region = ruined_isles_region
			}
			NOT = {
				country_or_non_sovereign_subject_holds = ROOT
			}
        }

        trigger = {
            ruined_isles_region = {
			    type = all
				country_or_non_sovereign_subject_holds = ROOT
	        }
        }
        
        effect = {
		    add_mercantilism = 5
		    add_treasury = 500
            add_country_modifier = {
				name = eborthil_control_of_the_heart
				duration = -1
			}
        }
	}
	
	eborthil_invest_in_nur_eborthil = {
        icon = mission_guilds_of_barcelona
        required_missions = { eborthil_nur_eborthil }
		position = 13
        
        provinces_to_highlight = {
            OR = {
				province_id = 2162
				province_id = 2164
				province_id = 2172
			}
        }

        trigger = {
            2162 = {
			    development = 10
			}
			2164 = {
			    development = 10
			}
			2172 = {
			    development = 10
			}
        }
        
        effect = {
		    west_vanburia_area = {
			    change_culture = tefori
			}
			north_vanburia_area = {
			    change_culture = tefori
			}
			east_vanburia_area = {
			    change_culture = tefori
			}
			2162 = {
			    change_trade_goods = iron
			}
			2164 = {
			    change_province_name = "Eboriansport"
				change_trade_goods = iron
			}
			2172 = {
			    change_province_name = "Delianfort"
				change_trade_goods = iron
			}
			add_country_modifier = {
				name = eborthil_new_eborthil
				duration = -1
			}
        }
	}
}