magisterium_1 = {
	slot = 1
	generic = no
	ai = yes
	has_country_shield = yes
	
	potential = {
		tag = A85
	}
	
	A85_prepare_expedition = {
		icon = mission_asian_trader
		position = 1
		
		provinces_to_highlight = {
			province_id = 3
		}
		
		trigger = {
			years_of_income = 2
			owns_core_province = 3
		}
		effect = {
			add_years_of_income = -2
			country_event = {id = magisterium.1 days = 3650 random = 1825} ##Expedition ready

		}
	}
	
	A85_launch_expedition = {
		icon = mission_conquer_malwa_mer
		position = 2
		required_missions = {
            A85_prepare_expedition
        }
		
		provinces_to_highlight = {
			province_id = 3
		}
		
		trigger = {
			owns_core_province = 3
			has_country_modifier = expedition_ready
		}
		effect = {
			country_event = {id = magisterium.2 days = 30 random = 15}
		}
	}
	
	A85_start_excavation = {
		icon = mission_portuguese_malacca
		position = 3
		
		provinces_to_highlight = {
			province_id = 4
		}
		
		trigger = {
			owns = 4
			years_of_income = 1.2
		}
		effect = {
			add_years_of_income = -1.2
			country_event = {id = magisterium.20 days = 600 random = 150} ### Gems in province
		}
	}
	
	A85_skyfall_ritual = {
		icon = mission_colonial
		position = 4
		
		trigger = {
			is_year = 1500
			adm = 4
			dip = 4
			mil = 4
		}
		effect = {
			set_country_flag = prepare_ritual
			custom_tooltip = loca_skyfall_ritual
		}
	}
	
	A85_make_it_fall = {
		icon = mission_make_it_fall
		position = 5
		required_missions = {
            A85_skyfall_ritual
        }
		trigger = {
			has_country_flag = third_step
			owns_core_province = 524
		}
		effect = {
			clr_country_flag = prepare_ritual
			clr_country_flag = first_step
			clr_country_flag = second_step
			clr_country_flag = third_step
			country_event = { id = magisterium.7 }
		}
	}
}

magisterium_2 = {
	slot = 2
	generic = no
	ai = yes
	has_country_shield = yes
	
	potential = {
		tag = A85
	}
	
	A85_access_to_gems = {
		icon = mission_asian_trader
		position = 2
		
		trigger = {
			if = {
				limit = {  ai = no }
				OR = {
					trading_bonus = {
						trade_goods = gems
						value = yes
					}
					gems = 1
					any_subject_country = {
						gems = 1
					}
				}
			}
			else = {
				is_year = 1485
			}
		}
		effect = {
			add_prestige = 10
			add_country_modifier = {
				name = magic_upsurge
				duration = 3650
			}
		}
	}
	
	A85_access_to_relics = {
		icon = mission_war_chest
		position = 4
		
		trigger = {
			OR = {
				trading_bonus = {
					trade_goods = precursor_relics
					value = yes
				}
				precursor_relics = 1
				any_subject_country = {
					precursor_relics = 1
				}
				has_country_flag = precursor_artefact
			}
		}
		effect = {
			add_prestige = 10
			add_country_modifier = {
				name = magic_upsurge
				duration = 3650
			}
		}
	}
	
	A85_access_to_damestear = {
		icon = mission_rb_inland_india
		position = 7
		
		trigger = {
			OR = {
				trading_bonus = {
					trade_goods = damestear
					value = yes
				}
				damestear = 1
				any_subject_country = {
					damestear = 1
				}
			}
		}
		effect = {
			add_prestige = 10
			add_country_modifier = {
				name = magic_upsurge
				duration = 3650
			}
		}
	}
	
	A85_adrail_has_damestear = {
		icon = mission_advance_to_the_dnieper
		position = 9
		
		trigger = {
			owns_core_province = 524
			524 = {
				trade_goods = damestear
			}
		}
		effect = {
			add_prestige = 15
			add_country_modifier = {
				name = magic_upsurge
				duration = 7300
			}
		}
	}
}

magisterium_3 = {
	slot = 3
	generic = no
	ai = yes
	has_country_shield = yes
	
	potential = {
		tag = A85
	}
	
	A85_develop_adrail = {
		icon = mission_magic_tower
		position = 1
		
		provinces_to_highlight = {
			province_id = 524
		}
		
		trigger = {
			owns_core_province = 524
			524 = {
				development = 10
			}
		}
		effect = {
			524 = {
				add_permanent_province_modifier = {
					name = mag_tower_base
					duration = -1
				}
			}
		}
	}
	
	A85_tower_one = {
		icon = mission_magisterium_fold_one
		position = 2
		
		required_missions = {
			A85_develop_adrail
		}
		
		provinces_to_highlight = {
			province_id = 524
		}
		
		trigger = {
			is_at_war = no
			owns_core_province = 524
			524 = {
				development = 20
			}
			adm_power = 25
			dip_power = 25
			mil_power = 25
		}
		effect = {
			add_adm_power = -25
			add_dip_power = -25
			add_mil_power = -25
			524 = {
				remove_province_modifier = mag_tower_base
				add_permanent_province_modifier = {
					name = mag_tower_one
					duration = -1
				}
			}
		}
	}
	
	A85_tower_two = {
		icon = mission_magisterium_fold_two
		position = 3
		
		required_missions = {
			A85_tower_one
			A85_access_to_gems
		}
		
		provinces_to_highlight = {
			province_id = 524
		}
		
		trigger = {
			is_at_war = no
			owns_core_province = 524
			524 = {
				development = 20
			}
			adm_power = 50
			dip_power = 50
			mil_power = 50
		}
		effect = {
			add_adm_power = -50
			add_dip_power = -50
			add_mil_power = -50
			524 = {
				remove_province_modifier = mag_tower_one
				add_permanent_province_modifier = {
					name = mag_tower_two
					duration = -1
				}
			}
		}
	}
	
	A85_tower_three = {
		icon = mission_magisterium_fold_three
		position = 4
		
		required_missions = {
			A85_tower_two
		}
		
		provinces_to_highlight = {
			province_id = 524
		}
		
		trigger = {
			is_at_war = no
			owns_core_province = 524
			524 = {
				development = 20
			}
			adm_power = 75
			dip_power = 75
			mil_power = 75
			years_of_income = 0.2
		}
		effect = {
			add_adm_power = -75
			add_dip_power = -75
			add_mil_power = -75
			add_years_of_income = -0.2
			524 = {
				remove_province_modifier = mag_tower_two
				add_permanent_province_modifier = {
					name = mag_tower_three
					duration = -1
				}
			}
		}
	}
	
	A85_breakthrought = {
		icon = mission_magisterium_breakthrought
		position = 5
		
		required_missions = {
			A85_tower_three
			A85_access_to_relics
		}
		
		trigger = {
			ruler_has_personality = mage_personality
			owns = 524
		}
		effect = {
			add_prestige = 25
			add_splendor = 400
			add_stability_or_adm_power = yes
			524 = {
				add_province_modifier = {
					name = mag_breakthrought
					duration = 3650
				}
			}
		}
	}
	
	A85_tower_four = {
		icon = mission_magisterium_fold_four
		position = 6
		
		required_missions = {
			A85_breakthrought
		}
		
		provinces_to_highlight = {
			province_id = 524
		}
		
		trigger = {
			is_at_war = no
			owns_core_province = 524
			524 = {
				development = 25
			}
			adm_power = 100
			dip_power = 100
			mil_power = 100
			years_of_income = 0.5
		}
		effect = {
			add_adm_power = -100
			add_dip_power = -100
			add_mil_power = -100
			add_years_of_income = -0.5
			524 = {
				remove_province_modifier = mag_tower_three
				add_permanent_province_modifier = {
					name = mag_tower_four
					duration = -1
				}
			}
		}
	}
	
	A85_tower_five = {
		icon = mission_magisterium_fold_five
		position = 7
		
		required_missions = {
			A85_tower_four
		}
		
		provinces_to_highlight = {
			province_id = 524
		}
		
		trigger = {
			is_at_war = no
			owns_core_province = 524
			524 = {
				development = 25
			}
			adm_power = 100
			dip_power = 100
			mil_power = 100
			years_of_income = 0.5
			adm = 4
			mil = 4
			dip = 4
		}
		effect = {
			add_adm_power = -100
			add_dip_power = -100
			add_mil_power = -100
			add_years_of_income = -0.5
			524 = {
				remove_province_modifier = mag_tower_four
				add_permanent_province_modifier = {
					name = mag_tower_five
					duration = -1
				}
			}
		}
	}
	
	A85_tower_six = {
		icon = mission_magisterium_fold_six
		position = 8
		
		required_missions = {
			A85_tower_five
			A85_access_to_damestear
		}
		
		provinces_to_highlight = {
			province_id = 524
		}
		
		trigger = {
			is_at_war = no
			owns_core_province = 524
			524 = {
				development = 30
			}
			adm_power = 100
			dip_power = 100
			mil_power = 100
			years_of_income = 0.8
			adm = 4
			mil = 4
			dip = 4
		}
		effect = {
			add_adm_power = -100
			add_dip_power = -100
			add_mil_power = -100
			add_years_of_income = -0.8
			524 = {
				remove_province_modifier = mag_tower_five
				add_permanent_province_modifier = {
					name = mag_tower_six
					duration = -1
				}
			}
		}
	}
	
	A85_tower_seven = {
		icon = mission_magisterium_fold_seven
		position = 9
		
		required_missions = {
			A85_tower_six
		}
		
		provinces_to_highlight = {
			province_id = 524
		}
		
		trigger = {
			is_at_war = no
			owns_core_province = 524
			524 = {
				development = 35
			}
			adm_power = 150
			dip_power = 150
			mil_power = 150
			years_of_income = 1
			adm = 4
			mil = 4
			dip = 4
		}
		effect = {
			add_adm_power = -150
			add_dip_power = -150
			add_mil_power = -150
			add_years_of_income = -1
			524 = {
				remove_province_modifier = mag_tower_six
				add_permanent_province_modifier = {
					name = mag_tower_seven
					duration = -1
				}
			}
		}
	}
	
	A85_tower_eight = {
		icon = mission_magisterium_fold_eight
		position = 10
		
		required_missions = {
			A85_tower_seven
			A85_adrail_has_damestear
		}
		
		provinces_to_highlight = {
			province_id = 524
		}
		
		trigger = {
			is_at_war = no
			owns_core_province = 524
			524 = {
				development = 40
			}
			adm_power = 150
			dip_power = 150
			mil_power = 150
			years_of_income = 1
			adm = 5
			mil = 5
			dip = 5
		}
		effect = {
			add_adm_power = -150
			add_dip_power = -150
			add_mil_power = -150
			add_years_of_income = -1
			524 = {
				remove_province_modifier = mag_tower_seven
				add_permanent_province_modifier = {
					name = mag_tower_eight
					duration = -1
				}
				center_of_trade = 1
			}
		}
	}
}

magisterium_4 = {
	slot = 4
	generic = no
	ai = yes
	has_country_shield = yes
	
	potential = {
		tag = A85
	}
	
	A85_prestige = {
		icon = mission_restore_kiev
		position = 1
		
		trigger = {
			prestige = 35
		}
		effect = {
			2  = { add_permanent_claim = ROOT }
			5  = { add_permanent_claim = ROOT }
			4  = { add_permanent_claim = ROOT }
		}
	}
	
	A85_conquer_damesear = {
		icon = mission_conquer_50_development
		position = 2
		
		required_missions = {
			A85_prestige
		}
		
		trigger = {
			owns = 2
			owns = 5
			owns = 4
		}
		provinces_to_highlight = {
			province_id = 2
			province_id = 5
			province_id = 4
		}
		effect = {
			2 = {
				add_base_production = 1
				add_base_tax = 1
				add_base_manpower = 1
			}
			5 = {
				add_base_production = 1
				add_base_tax = 1
				add_base_manpower = 1
			}
			4 = {
				add_base_production = 1
				add_base_tax = 1
				add_base_manpower = 1
			}
		}
	}
	
	A85_fortify_enclave = {
		icon = mission_land_of_churches
		position = 3
		
		required_missions = {
			A85_conquer_damesear
		}
		
		trigger = {
			331 = {
				is_core = ROOT
				controlled_by = ROOT
				base_manpower = 6
			}
			
			898 = {
				is_core = ROOT
				controlled_by = ROOT
				base_manpower = 6
			}
		}
		provinces_to_highlight = {
			province_id = 331
			province_id = 898
			NOT = { country_or_non_sovereign_subject_holds = ROOT }
		}
		effect = {
			331 = {
				add_permanent_province_modifier = {
					name = magic_reinforced_wall
					duration = 36500
				}
			}
			898 = {
				add_permanent_province_modifier = {
					name = magic_reinforced_wall
					duration = 36500
				}
			}
			upper_luna_area  = {
				limit = {
					NOT = { is_core = ROOT }
					NOT = { is_permanent_claim = ROOT }
				}
				add_permanent_claim = ROOT
			}
			
			menibor_loop_area  = {
				limit = {
					NOT = { is_core = ROOT }
					NOT = { is_permanent_claim = ROOT }
				}
				add_permanent_claim = ROOT
			}
			
		}
	}
	
	A85_secure_aranthil = {
		icon = mission_unite_home_region
		position = 4
		
		required_missions = {
			A85_fortify_enclave
		}
		
		trigger = {
			upper_luna_area  = {
				type = all
				country_or_non_sovereign_subject_holds = ROOT
			}
			
		}
		provinces_to_highlight = {
			area = upper_luna_area
			NOT = { country_or_non_sovereign_subject_holds = ROOT }
		}
		effect = {
			898 = {
				add_base_manpower = 3
				add_base_production = 2
				add_base_tax = 2
			}
			423 = { add_permanent_claim = ROOT }
		}
	}
	
	A85_aldresia_downfall = {
		icon = mission_monarch_in_throne_room
		position = 5
		
		required_missions = {
			A85_secure_aranthil
			A85_secure_oldtower
		}
		
		trigger = {
			NOT = { exists = A77} # Orda Aldresia
			owns = 423 #Arca Aldresia
			
		}
		provinces_to_highlight = {
			province_id = 423
			NOT = { country_or_non_sovereign_subject_holds = ROOT }
		}
		effect = {
			country_event = {id = magisterium.15}
		}
	}
}

magisterium_5 = {
	slot = 5
	generic = no
	ai = yes
	has_country_shield = yes
	
	potential = {
		tag = A85
	}
	
	
	A85_ally_the_emperor = {
		icon = mission_empire
		position = 2
		
		required_missions = {
			A85_prestige
		}
		
		trigger = {
			emperor = {
				alliance_with = ROOT
			}
			
		}
		
		effect = {
			add_prestige = 15
			add_dip_power = 150
			add_mil_power = 50
			add_adm_power = 50
		}
	}
	
	A85_anbenncoast_dilemma = {
		icon = mission_hanseatic_city
		position = 3
		
		
		required_missions = {
			A85_ally_the_emperor
			A85_conquer_damesear
		}
		trigger = {
			emperor = {
				alliance_with = ROOT
			}
			OR = {
				AND = {
					reverse_has_opinion = {
						who = A38 #Anbenncoast
						value = 100
					}
					A38 = {
						exists = yes
						owns = 8
					}
				}
				A38 = {exists = no}
				NOT = {A38 = {owns = 8}}
				owns_core_province = 8
			}
		}
		
		effect = {
			if = {
				limit = {
					A38 = {
						owns = 8
						num_of_cities = 1
					}
				}
				country_event = {id = magisterium.16}
			}
			else_if = {
				limit = {NOT = {owns = 8}}
				8 = { add_permanent_claim = ROOT }
			}
			else = {
				add_years_of_income = 2
			}
		}
	}
	
	A85_secure_oldtower = {
		icon = mission_unite_home_region
		position = 4
		
		required_missions = {
			A85_fortify_enclave
		}
		
		trigger = {
			menibor_loop_area  = {
				type = all
				country_or_non_sovereign_subject_holds = ROOT
			}
		}
		provinces_to_highlight = {
			area = menibor_loop_area
			NOT = { country_or_non_sovereign_subject_holds = ROOT }
		}
		effect = {
			331 = {
				add_base_manpower = 3
				add_base_production = 2
				add_base_tax = 2
			}
		}
	}
	
	A85_university = {
		icon = mission_european_church
		position = 6
		
		trigger = {
			3 = {
				owned_by = ROOT
				has_building = university
			}
			6 = {
				owned_by = ROOT
				has_building = university
			}
			168 = {
				owned_by = ROOT
				has_building = university
			}
			5 = {
				owned_by = ROOT
				has_building = university
			}
			2 = {
				owned_by = ROOT
				has_building = university
			}
			4 = {
				owned_by = ROOT
				has_building = university
			}
		}
		provinces_to_highlight = {
			province_id = 3
			province_id = 6
			province_id = 168
			province_id = 5
			province_id = 2
			province_id = 4
		}
		effect = {
			3 = {
				add_base_manpower = 1
				add_base_production = 1
				add_base_tax = 1
			}
			6 = {
				add_base_manpower = 1
				add_base_production = 1
				add_base_tax = 1
			}
			168 = {
				add_base_manpower = 1
				add_base_production = 1
				add_base_tax = 1
			}
			5 = {
				add_base_manpower = 1
				add_base_production = 1
				add_base_tax = 1
			}
			2 = {
				add_base_manpower = 1
				add_base_production = 1
				add_base_tax = 1
			}
			4 = {
				add_base_manpower = 1
				add_base_production = 1
				add_base_tax = 1
			}
		}
	}
	
	A85_gold_alchemy = {
		icon = mission_entrepot_of_india
		position = 7
		
		required_missions = {
			A85_university
		}
		
		trigger = {
			ruler_has_personality = mage_personality
			owns_core_province = 6
			is_at_war = no
			OR = {
				AND = {
					adm = 5
					dip = 4
					mil = 4
				}
				
				AND = {
					adm = 4
					dip = 5
					mil = 4
				}
				
				AND = {
					adm = 4
					dip = 4
					mil = 5
				}
			}
		}
		provinces_to_highlight = {
			province_id = 6
		}
		effect = {
			6 = {
				change_trade_goods = gold
				add_base_production = 2
			}
		}
	}
}