g32_battleking_grace_period = {
}

g32_battlequeen = {
	may_recruit_female_generals = yes
}

g32_battleregency = {
	stability_cost_modifier = 0.2
	global_unrest = 5
	min_autonomy = 20
}

g32_legacy_battlequeen = {
	may_recruit_female_generals = yes
	global_manpower_modifier = 0.1
	manpower_recovery_speed = -0.05
}

g32_battleking_fought_recently = {
	prestige_decay = -0.01
}

g32_cowardly_battleking = {
	global_unrest = 3
	legitimacy = -4
	devotion = -2
	republican_tradition = -2
	yearly_absolutism = -1
	min_autonomy = 20
}

g32_untested_battleking = {
	global_unrest = 1
	legitimacy = -2
	devotion = -1
	republican_tradition = -1
	yearly_absolutism = -0.5
	min_autonomy = 10
}

g32_tested_battleking = {
	legitimacy = 0.5
}

g32_bloodied_battleking = {
	global_unrest = -1
	legitimacy = 1
	devotion = 0.25
	republican_tradition = 0.25
	yearly_absolutism = 0.5
	prestige_decay = -0.01
	land_morale = 0.05
}

g32_veteran_battleking = {
	global_unrest = -2
	legitimacy = 2
	devotion = 0.5
	republican_tradition = 0.5
	yearly_absolutism = 1
	prestige_decay = -0.02
	land_morale = 0.1
	diplomatic_reputation = 1
}

g32_legendary_battleking = {
	global_unrest = -3
	legitimacy = 3
	devotion = 1
	republican_tradition = 1
	yearly_absolutism = 2
	prestige = 2
	land_morale = 0.2
	diplomatic_reputation = 1
}