namespace = corins_circle

#Main
country_event = {
	id = corins_circle.100
	title = corins_circle.100.t	
	desc = corins_circle.100.d
	picture = BIG_BOOK_eventPicture
	
	hidden = yes
	is_triggered_only = yes
	
	trigger = {
		owns = 8
		NOT = { is_year = 1500 }
		is_year = 1453
	}
	
	option = {
		name = corins_circle.100.a
		ai_chance = { factor = 100 }
		#Choosing a random target country
		random_list = {
			95 = { #more likely if adventurer
				random_country = {
					limit = {
						OR = {
							capital_scope = { region = west_castanor_region }
							capital_scope = { region = south_castanor_region }
							capital_scope = { region = inner_castanor_region }
							capital_scope = { area = whistlevale_area }
							capital_scope = { area = cursewood_area }
						}
						NOT = { has_country_modifier = monstrous_nation }
						has_reform = adventurer_reform
					}
					save_event_target_as = corins_circle_target
				}
			}
			5 = {
				random_country = {
					limit = {
						OR = {
							capital_scope = { region = west_castanor_region }
							capital_scope = { region = south_castanor_region }
							capital_scope = { region = inner_castanor_region }
							capital_scope = { area = whistlevale_area }
							capital_scope = { area = cursewood_area }
						}
						NOT = { has_country_modifier = monstrous_nation }
						NOT = { has_reform = adventurer_reform }
					}
					save_event_target_as = corins_circle_target
				}
			}
		}
	}
	
	after = {
		#Choosing a random circle member
		event_target:corins_circle_target = {	 
			random_list = { 
				20 = {
					trigger = { NOT = { has_global_flag = lauren_sil_place } }
					country_event = { id = corins_circle.1 }
					set_global_flag = lauren_sil_place
				}
				20 = {
					trigger = { NOT = { has_global_flag = winston_foolfoot } }
					modifier = { # More likely for high ruler ADM/DIP
						factor = 2
						OR = {
							adm = 5
							dip = 5
						}
					}
					country_event = { id = corins_circle.3 }
					set_global_flag = winston_foolfoot
				}
				20 = {
					trigger = { NOT = { has_global_flag = aucan_sil_versil } }
					country_event = { id = corins_circle.4 }
					set_global_flag = aucan_sil_versil
				}
				20 = {
					trigger = { NOT = { has_global_flag = dominic_of_gallowpeak } }
					modifier = { # Higher for low ruler adm/dip/mil
						factor = 2
						NOT = {
							adm = 3
							dip = 3	
							mil = 3
						}
					}
					country_event = { id = corins_circle.5 }
					set_global_flag = dominic_of_gallowpeak
				}
				20 = {
					trigger = { NOT = { has_global_flag = cecil_sapphire_eye } }
					modifier = { # More likely for low stat monarchs, more likely for controller of Sapphirewatch.
						factor = 2
						NOT = {
							adm = 3
							dip = 3	
							mil = 3
						}
					}
					modifier = {
						factor = 5
						ROOT = { owns = 834 } #Sapphirewatch
					}
					country_event = { id = corins_circle.6 }
					set_global_flag = cecil_sapphire_eye
				}
				20 = {
					trigger = { 
						NOT = { has_global_flag = nesterin_the_gaunt }
						is_year = 1478 #long lived members come back from retirement latter
					}
					modifier = { # Less likely for high mil/martial educator/brave/tactical genius
						factor = 0.5
						OR = {
							mil = 5
							ruler_has_personality = martial_educator_personality
							ruler_has_personality = tactical_genius_personality
							ruler_has_personality = bold_fighter_personality
						} 
					}
					country_event = { id = corins_circle.7 }
					set_global_flag = nesterin_the_gaunt
				}
				20 = {
					trigger = { 
						NOT = { has_global_flag = iacobb_creekwhistle }
						is_year = 1478
					}
					modifier = { # More likely for high mil/adm ruler, more likely for low prestige
						factor = 2
						OR = {
							adm = 5
							mil = 5
							NOT = { prestige = 0 }
						} 
					}
					country_event = { id = corins_circle.8 }
					set_global_flag = iacobb_creekwhistle
				}
				20 = {
					trigger = { 
						NOT = { has_global_flag = rethag_ironbrow }
						is_year = 1478
					}
					modifier = {
						factor = 2
						OR = {
							tag = B02 #Corintar
							tag = B18 #Iron Hammers
							tag = Z36 #Hammerhome
						} 
					}
					country_event = { id = corins_circle.10 }
					set_global_flag = rethag_ironbrow
				}
			}
		}
	}
}

#Ser Laurens sil Place
country_event = {
	id = corins_circle.1
	title = corins_circle.1.t	
	desc = corins_circle.1.d
	picture = ADVISOR_eventPicture
	goto = ROOT
	
	fire_only_once = yes
	is_triggered_only = yes
	
	trigger = {
		always = yes
	}
	
	option = {
		name = corins_circle.1.a
		ai_chance = {
			factor = 10
		}
		add_army_tradition = 10
		add_militarised_society = 10
		create_general = {
			name = "Ser Laurens sil Place"
			tradition = 60
		}
		hidden_effect = {
			country_event = { id = corins_circle.2 days = 1825 random = 1825 }
		}
	}
	
	option = {
		name = corins_circle.1.b
		ai_chance = {
			factor = 5
		}
		add_country_modifier = {
			name = lauren_sil_place_modifier_1
			duration = 3650
		}
		hidden_effect = {
			country_event = { id = corins_circle.2 days = 1825 random = 1825 }
		}
	}
	
	option = {
		name = corins_circle.1.c
		ai_chance = {
			factor = 0
		}
		add_prestige = 10
	}
}

#Ser Laurens sil Place does Witch King stuff
country_event = {
	id = corins_circle.2
	title = corins_circle.2.t	
	desc = corins_circle.2.d
	picture = IMPALED_SOLDIERS_eventPicture
	goto = ROOT
	
	fire_only_once = yes
	is_triggered_only = yes
	
	trigger = {
		always = yes
	}
	
	option = {
		name = corins_circle.2.a
		ai_chance = {
			factor = 1
		}
		add_stability = -1
		country_event = { id = corins_circle.13 days = 15 }
	}
}

#Winston Foolfoot
country_event = {
	id = corins_circle.3
	title = corins_circle.3.t
	desc = corins_circle.3.d
	picture = ADVISOR_eventPicture
	goto = ROOT
	
	fire_only_once = yes
	is_triggered_only = yes
	
	trigger = {
		always = yes
	}
	
	option = {
		name = corins_circle.3.a
		ai_chance = {
			factor = 10
		}
		add_country_modifier = {
			name = winston_foolfoot_modifier
			duration = 3650
		}
	}
	
	option = {
		name = corins_circle.3.b
		ai_chance = {
			factor = 2
			modifier = {
				factor = 0
				is_in_deficit = yes
			}
		}
		define_advisor = {
			type = spymaster
			name = "Winston Foolfoot"
			skill = 2
			culture = imperial_halfling
			religion = regent_court
			cost_multiplier = 0.50
		}
		random_neighbor_country = {
			limit = { 
				NOT = { 
					alliance_with = ROOT
					is_subject_of = ROOT
				}
			}
			add_spy_network_from = {
				who = ROOT
				value = 40
			}
		}
	}
	
	option = {
		name = corins_circle.3.c
		trigger = { NOT = { tag = B10 } } #Small Fellows
		ai_chance = {
			factor = 1
		}
		add_prestige = 10
		small_decrease_of_halfling_tolerance_effect = yes
	}
}

#Aucan sil Versil
country_event = {
	id = corins_circle.4
	title = corins_circle.4.t	
	desc = corins_circle.4.d
	picture = ADVISOR_eventPicture
	goto = ROOT
	
	fire_only_once = yes
	is_triggered_only = yes
	
	trigger = {
		always = yes
	}
	
	option = {
		name = corins_circle.4.a
		ai_chance = {
			factor = 2
			modifier = {
				factor = 0
				is_in_deficit = yes
			}
		}
		define_advisor = {
			type = artist
			name = "Aucan sil Versil"
			skill = 2
			culture = corvurian
			religion = regent_court
			cost_multiplier = 0.50
		}
		add_militarised_society = 10
	}
	
	option = {
		name = corins_circle.4.b
		ai_chance = {
			factor = 10
		}
		add_legitimacy = 10
		add_republican_tradition = 3
		add_devotion = 10
		add_country_modifier = {
			name = aucan_sil_versil_modifier
			duration = 3650
		}
	}
	
	option = {
		name = corins_circle.4.c
		ai_chance = {
			factor = 1
		}
		add_prestige = 10
	}
}

#Dominic of Gallowspeak
country_event = {
	id = corins_circle.5
	title = corins_circle.5.t	
	desc = corins_circle.5.d
	picture = ADVISOR_eventPicture
	goto = ROOT
	
	fire_only_once = yes
	is_triggered_only = yes
	
	trigger = {
		always = yes
	}
	
	option = {
		name = corins_circle.5.a
		ai_chance = {
			factor = 3
			modifier = {
				factor = 0
				is_in_deficit = yes
			}
		}
		define_advisor = {
			type = theologian
			name = "Dominic of Gallowspeak"
			skill = 2
			culture = farrani
			religion = regent_court
			cost_multiplier = 0.50
		}
		add_country_modifier = {
			name = dominic_of_gallowpeak_modifier_1
			duration = 3650
		}
	}
	
	option = {
		name = corins_circle.5.b
		ai_chance = {
			factor = 10
		}
		add_ruler_modifier = {
			name = dominic_of_gallowpeak_modifier_2
			duration = -1
		}
	}
	
	option = {
		name = corins_circle.5.c
		ai_chance = {
			factor = 1
		}
		add_prestige = 10
	}
}

#Ser Cecil of the Sapphire Eye
country_event = {
	id = corins_circle.6
	title = corins_circle.6.t	
	desc = corins_circle.6.d
	picture = ADVISOR_eventPicture
	goto = ROOT
	
	fire_only_once = yes
	is_triggered_only = yes
	
	trigger = {
		always = yes
	}
	
	option = {
		name = corins_circle.6.a
		ai_chance = {
			factor = 5
		}
		add_ruler_modifier = {
			name = cecil_sapphire_eye_modifier
			duration = -1
		}
	}
	
	option = {
		name = corins_circle.6.b
		ai_chance = {
			factor = 2
			modifier = {
				factor = 2
				NOT = { mil = 3 }
			}
			modifier = {
				factor = 2
				NOT = { ruler_age = 30 }
			}
			modifier = {
				factor = 5
				NOT = { ruler_age = 20 }
			}
			modifier = {
				factor = 0
				mil = 6
			}
		}
		random_list = {
			75 = { increase_ruler_mil_effect = yes }
			25 = { add_mil_power = 50 }
		}
	}
	
	option = {
		name = corins_circle.6.c
		ai_chance = {
			factor = 1
		}
		add_prestige = 5
		add_army_tradition = 5
	}
}

#Nesterin the Gaunt
country_event = {
	id = corins_circle.7
	title = corins_circle.7.t	
	desc = corins_circle.7.d
	picture = ADVISOR_eventPicture
	goto = ROOT
	
	fire_only_once = yes
	is_triggered_only = yes
	
	trigger = {
		always = yes
	}
	
	option = {
		name = corins_circle.7.a
		ai_chance = {
			factor = 2
			modifier = {
				factor = 0
				is_in_deficit = yes
			}
		}
		define_advisor = {
			type = commandant
			name = "Nesterin the Gaunt"
			skill = 2
			culture = moon_elf
			religion = elven_forebears
			cost_multiplier = 0.50
		}
		add_army_tradition = 10
	}
	
	option = {
		name = corins_circle.7.b
		ai_chance = {
			factor = 10
		}
		add_country_modifier = {
			name = nesterin_the_gaunt_modifier
			duration = 9125
		}
	}
	
	option = {
		name = corins_circle.7.c
		ai_chance = {
			factor = 1
		}
		add_mil_power = 50
		add_prestige = 10
	}
}

#Iacobb Creekwhistle
country_event = {
	id = corins_circle.8
	title = corins_circle.8.t	
	desc = corins_circle.8.d
	picture = ADVISOR_eventPicture
	goto = ROOT
	
	fire_only_once = yes
	is_triggered_only = yes
	
	trigger = {
		always = yes
	}
	
	option = {
		name = corins_circle.8.a
		ai_chance = {
			factor = 5
		}
		add_country_modifier = {
			name = iacobb_creekwhistle_modifier_1
			duration = 3650
		}
		small_increase_of_gnomish_tolerance_effect = yes
		hidden_effect = {
			country_event = { id = corins_circle.9 days = 3650 random = 1825 }
		}
	}
	
	option = {
		name = corins_circle.8.b
		ai_chance = {
			factor = 5
		}
		add_country_modifier = {
			name = iacobb_creekwhistle_modifier_2
			duration = 3650
		}
		small_increase_of_gnomish_tolerance_effect = yes
		hidden_effect = {
			country_event = { id = corins_circle.9 days = 3650 random = 1825 }
		}
	}
	
	option = {
		name = corins_circle.8.c
		ai_chance = {
			factor = 2
			modifier = {
				factor = 0
				is_in_deficit = yes
			}
		}
		add_years_of_income = -0.25
		add_ruler_modifier = { 
			name = iacobb_creekwhistle_modifier_3
			duration = -1  
		}
		hidden_effect = {
			country_event = { id = corins_circle.9 days = 3650 random = 1825 }
		}
	}
	
	option = {
		name = corins_circle.8.e
		ai_chance = {
			factor = 0
		}
		add_country_modifier = {
			name = iacobb_creekwhistle_modifier_4
			duration = 1825
		}
		small_decrease_of_gnomish_tolerance_effect = yes
	}
}

#Iacobb's Rifles
country_event = {
	id = corins_circle.9
	title = corins_circle.9.t	
	desc = corins_circle.9.d
	picture = SCOTTISH_MERCENARIES_eventPicture
	goto = ROOT
	
	fire_only_once = yes
	is_triggered_only = yes
	
	trigger = {
		always = yes
	}
	
	option = {
		name = corins_circle.9.a
		ai_chance = {
			factor = 1
			modifier = {
				factor = 5
				personality = ai_militarist
			}
		}
		random_owned_province = {
			add_gnomish_minority_size_effect = yes
			add_gnomish_minority_size_effect = yes
			add_devastation = 50 
		}
		large_increase_of_gnomish_tolerance_effect = yes
		add_country_modifier = {
			name = iacobbs_riffles_modifier_1
			duration = 3650
		}
	}
	
	option = {
		name = corins_circle.9.b
		ai_chance = {
			factor = 3
			modifier = {
				factor = 0
				is_in_deficit = yes
			}
		}
		add_years_of_income = -0.2
		random_owned_province = {
			add_gnomish_minority_size_effect = yes
			add_gnomish_minority_size_effect = yes
			add_devastation = 50
			add_province_modifier = {
				name = iacobbs_riffles_modifier_2
				duration = -1
			}
		}
		large_increase_of_gnomish_tolerance_effect = yes
		
	}
}

#Rethag Ironbrow
country_event = {
	id = corins_circle.10
	title = corins_circle.10.t	
	desc = corins_circle.10.d
	picture = ADVISOR_eventPicture
	goto = ROOT
	
	fire_only_once = yes
	is_triggered_only = yes
	
	trigger = {
		always = yes
	}
	
	option = {
		name = corins_circle.10.a
		ai_chance = {
			factor = 10
		}
		add_country_modifier = {
			name = rethag_ironbrow_modifier
			duration = 3650
		}
		small_increase_of_dwarven_tolerance_effect = yes
	}
	
	option = {
		name = corins_circle.10.b
		ai_chance = {
			factor = 2
			modifier = {
				factor = 0
				is_in_deficit = yes
			}
		}
		define_advisor = {
			type = army_reformer
			name = "Rethag Ironbrow"
			skill = 2
			culture = ruby_dwarf
			religion = ancestor_worship
			cost_multiplier = 0.50
		}
		small_increase_of_dwarven_tolerance_effect = yes
		add_militarised_society = 5
	}
	
	option = {
		name = corins_circle.10.c
		ai_chance = {
			factor = 1
			modifier = {
				factor = 2
				NOT = { prestige = 0 }
			}
			modifier = {
				factor = 3
				NOT = { army_tradition = 21 }
			}
			
		}
		add_army_tradition = 10
		add_prestige = 10
	}
}

#Rethag Ironbrow: For Corin!
country_event = {
	id = corins_circle.11
	title = corins_circle.11.t	
	desc = corins_circle.11.d
	picture = ADVISOR_eventPicture
	goto = ROOT
	
	fire_only_once = yes
	
	trigger = {
		is_in_league_war = yes
		in_league = corinite
		religion = corinite
	}
	
	mean_time_to_happen = {
		months = 5
		modifier = {
			factor = 0.4
			is_league_leader = yes
		}
	}
	
	option = {
		name = corins_circle.11.a
		ai_chance = {
			factor = 10
			modifier = {
				factor = 0
				NOT = { mil_power = 50 }
			}
		}
		add_mil_power = -50
		define_general = {
			name = "Rethag Ironbrow"
			shock = 4
			fire = 3
			manuever = 2
			siege = 4
		}
	}
	
	option = {
		name = corins_circle.11.b
		ai_chance = {
			factor = 1
		}
		add_prestige = 10
	}
}

#Dominic of Gallowspeak : after
country_event = {
	id = corins_circle.12
	title = corins_circle.12.t	
	desc = corins_circle.12.d
	picture = ADVISOR_eventPicture
	goto = ROOT
	
	fire_only_once = yes
	is_triggered_only = yes
	
	trigger = {
		always = yes
	}
	
	option = {
		name = corins_circle.12.a
		ai_chance = {
			factor = 1
		}
		add_country_modifier = {
			name = dominic_of_gallowpeak_modifier_3
			duration = 3650
		}
	}
	
	option = {
		name = corins_circle.12.b
		ai_chance = {
			factor = 1
		}
		add_country_modifier = {
			name = dominic_of_gallowpeak_modifier_4
			duration = 3650
		}
	}
}

#Ser Laurens' Fate
country_event = {
	id = corins_circle.13
	title = corins_circle.13.t	
	desc = corins_circle.13.d
	picture = COURT_eventPicture
	goto = ROOT
	
	fire_only_once = yes
	is_triggered_only = yes
	
	trigger = {
		always = yes
	}
	
	option = {
		name = corins_circle.13.a
		ai_chance = {
			factor = 1
			modifier = {
				factor = 0
				OR = {
					ruler_has_personality = benevolent_personality
					ruler_has_personality = careful_personality
					ruler_has_personality = just_personality
					ruler_has_personality = kind_hearted_personality
				}
				NOT = { has_ruler_modifier = witch_king_modifier }
			}
			modifier = {
				factor = 100
				OR = {
					ruler_has_personality = cruel_personality
					ruler_has_personality = malevolent_personality
					has_ruler_modifier = witch_king_modifier
				}
			}
		}
		add_mil_power = -100
		add_country_modifier = {
			name = lauren_sil_place_modifier_2
			duration = 3650
		}
		increase_witch_king_points_large = yes
	}
	
	option = {
		name = corins_circle.13.b
		ai_chance = {
			factor = 1
		}
		if = { limit = { has_country_modifier = lauren_sil_place_modifier_1 }
			remove_country_modifier = lauren_sil_place_modifier_1
		}
		if = { limit = { has_leader = "Ser Laurens sil Place" }
			kill_leader = { type = "Ser Laurens sil Place" }
		}
		add_country_modifier = {
			name = lauren_sil_place_modifier_3
			duration = 3650
		}
	}
}
