namespace = flavor_malacnar

#You slay the Malacnar battleking
country_event = {
	id = flavor_malacnar.2
	title = flavor_malacnar.2.t
	desc = flavor_malacnar.2.d
	picture = BATTLE_eventPicture
	
	is_triggered_only = yes
	
	option = {
		name = flavor_malacnar.2.a
		
		if = {
			limit = {
				has_global_flag = malacnar_killed_legendary
			}
			add_mil_power = 100
			add_prestige = 30
		}
		else_if = {
			limit = {
				has_global_flag = malacnar_killed_veteran
			}
			add_mil_power = 50
			add_prestige = 20
		}
		else = {
			add_prestige = 10
		}
		
		ai_chance = {
			factor = 1
		}
	}
}

#Your Battleking gets slain
country_event = {
	id = flavor_malacnar.3
	title = flavor_malacnar.3.t
	desc = {
		trigger = {
			NOT = {
				has_ruler_modifier = g32_cowardly_battleking
				has_ruler_modifier = g32_untested_battleking
			}
		}
	   desc = flavor_malacnar.3.d1
	}
	desc = {
	   trigger = {
			OR = {
				has_ruler_modifier = g32_cowardly_battleking
				has_ruler_modifier = g32_untested_battleking
			}
		}
	   desc = flavor_malacnar.3.d2
	}
	picture = BATTLE_eventPicture
	
	is_triggered_only = yes
	
	trigger = {
		tag = G32
	}
	
	immediate = {
		clr_global_flag = malacnar_killed_legendary
		clr_global_flag = malacnar_killed_veteran
		if = {
			limit = {
				G32 = { has_ruler_modifier = g32_legendary_battleking }
			}
			set_global_flag = malacnar_killed_legendary
		}
		else_if = {
			limit = {
				G32 = { has_ruler_modifier = g32_veteran_battleking }
			}
			set_global_flag = malacnar_killed_veteran
		}
	}
	
	option = {
		name = flavor_malacnar.3.a
		
		trigger = {
			NOT = {
				has_ruler_modifier = g32_cowardly_battleking
				has_ruler_modifier = g32_untested_battleking
			}
		}
		
		kill_ruler = yes
		
		add_prestige = -20
		
		add_stability = -1
		custom_tooltip = malacnar_stability_tooltip
		
		if = {
			limit = {
				NOT = {
					has_heir = yes
				}
			}
			
			custom_tooltip = malacnar_emergency_meeting_tooltip
			
			add_mil_power = -50
		
		}
		
		ai_chance = {
			factor = 1
		}
	}
	
	option = {
		name = flavor_malacnar.3.b
		
		trigger = {
			OR = {
				has_ruler_modifier = g32_cowardly_battleking
				has_ruler_modifier = g32_untested_battleking
			}
		}
		
		kill_ruler = yes
		
		add_prestige = -20
		
		add_stability = -1
		custom_tooltip = malacnar_stability_tooltip
		
		if = {
			limit = {
				NOT = {
					has_heir = yes
				}
			}
			
			custom_tooltip = malacnar_emergency_meeting_tooltip
			
			add_mil_power = -50
		
		}
		
		ai_chance = {
			factor = 1
		}
	}
}

#New Battleking Ascension Event
country_event = {
	id = flavor_malacnar.4
	title = flavor_malacnar.4.t
	desc = {
		trigger = {
			OR = {
				is_female = no
				has_country_flag = g32_past_queen
			}
		}
	   desc = flavor_malacnar.4.d1
	}
	desc = {	#Text changes if female battlequeen
	   trigger = {
			is_female = yes
			NOT = { has_country_flag = g32_past_queen }
		}
	   desc = flavor_malacnar.4.d2
	}
	
	picture = {
		trigger = { is_female = no }
		picture = REFORM_eventPicture
	}
	picture = {
		trigger = { is_female = yes has_dlc = "Women in History" }
		picture = wihgfx_FEMALE_GENERAL_eventPicture
	}
	picture = {
		trigger = { is_female = yes NOT = { has_dlc = "Women in History" } }
		picture = QUEEN_AT_COUNCIL_TABLE_eventPicture
	}
	
	is_triggered_only = yes
	
	trigger = {
		tag = G32
		has_regency = no
	}

	option = {
		name = flavor_malacnar.4.a
		
		trigger = {
			is_female = no
			NOT = { primary_culture = malacnari }
		}

		if = {
			limit = {
				ai = no
			}
			add_ruler_modifier = {	#Two years and a half
				name = g32_battleking_grace_period
				duration = 912
				hidden = yes
			}
		}
		else = {
			add_ruler_modifier = {	#Ten years for AI
				name = g32_battleking_grace_period
				duration = 3650
				hidden = yes
			}
		}
		
		add_ruler_modifier = {
			name = g32_untested_battleking
		}
		
		hidden_effect = {
			set_ai_personality = {
				personality = ai_militarist
				locked = no
			}
		}
			
		custom_tooltip = malacnar_battleking_rep_tooltip
		
		ai_chance = {
			factor = 1
		}
	}

	option = {
		name = flavor_malacnar.4.d
		
		trigger = {
			is_female = no
			primary_culture = malacnari
		}

		if = {
			limit = {
				ai = no
			}
			add_ruler_modifier = {	#Two years and a half
				name = g32_battleking_grace_period
				duration = 912
				hidden = yes
			}
		}
		else = {
			add_ruler_modifier = {	#Ten years for AI
				name = g32_battleking_grace_period
				duration = 3650
				hidden = yes
			}
		}
		
		add_ruler_modifier = {
			name = g32_untested_battleking
		}
		
		hidden_effect = {
			set_ai_personality = {
				personality = ai_militarist
				locked = no
			}
		}
			
		custom_tooltip = malacnar_battleking_rep_tooltip
		
		ai_chance = {
			factor = 1
		}
	}
	
	option = {	#Battlequeen transition goes smoothly
		name = flavor_malacnar.4.b
		
		trigger = {
			is_female = yes
			OR = {
				has_country_modifier = g32_legacy_battlequeen
				stability = 1
			}
		}
		
		add_ruler_modifier = {
			name = g32_battlequeen
			hidden = yes
		}
		
		set_country_flag = g32_past_queen

		if = {
			limit = {
				ai = no
			}
			add_ruler_modifier = {	#Less than two years
				name = g32_battleking_grace_period
				duration = 600
				hidden = yes
			}
		}
		else = {
			add_ruler_modifier = {	#Five years for AI
				name = g32_battleking_grace_period
				duration = 1825
				hidden = yes
			}
		}
		
		add_ruler_modifier = {
			name = g32_untested_battleking
		}
		
		hidden_effect = {
			set_ai_personality = {
				personality = ai_militarist
				locked = no
			}
		}
			
		custom_tooltip = malacnar_battleking_rep_tooltip
		
		ai_chance = {
			factor = 100
		}
	}
	
	option = {	#Battlequeen is challenged
		name = flavor_malacnar.4.c
		
		trigger = {
			is_female = yes
			NOT = {
				has_country_modifier = g32_legacy_battlequeen
			}
		}
		
		random_province = {
			limit = { area = malacnar_area }
			
			spawn_rebels = {
				type = pretender_rebels
				size = 2
			}
		}
		
		add_ruler_modifier = {
			name = g32_battlequeen
			hidden = yes
		}
		
		set_country_flag = g32_past_queen

		if = {
			limit = {
				ai = no
			}
			add_ruler_modifier = {	#Less than two years
				name = g32_battleking_grace_period
				duration = 600
				hidden = yes
			}
		}
		else = {
			add_ruler_modifier = {	#Five years for AI
				name = g32_battleking_grace_period
				duration = 1825
				hidden = yes
			}
		}
		
		add_ruler_modifier = {
			name = g32_untested_battleking
		}
		
		hidden_effect = {
			set_ai_personality = {
				personality = ai_militarist
				locked = no
			}
		}
			
		custom_tooltip = malacnar_battleking_rep_tooltip
		
		ai_chance = {
			factor = 1
		}
	}
}

#Reforming the country
country_event = {
	id = flavor_malacnar.5
	title = flavor_malacnar.5.t
	desc = flavor_malacnar.5.d
	picture = REFORM_eventPicture
	
	is_triggered_only = yes
	
	trigger = {
		tag = G32
	}
	
	option = {	#keep the elective stratocracy
		name = flavor_malacnar.5.a
		
		set_country_flag = reformed_malacnar_flag 
		
		change_government_to_republic = yes
		add_government_reform = malacnar_republic_reform
		
		if = {
			limit = {
				has_reform = states_general_reform
			}
			remove_government_reform = states_general_reform
		}
		
		ai_chance = {
			factor = 3
		}
	}
	
	option = {	#let's make Malacnar into a hereditary monarchy because why not
		name = flavor_malacnar.5.b
		
		trigger = { government = monarchy }
		
		set_country_flag = reformed_malacnar_flag 
		
		if =  {
			limit = {
				NOT = {
					has_ruler_modifier = g32_legendary_battleking
				}
				calc_true_if = {
					has_reform = enforce_privileges_reform
					has_reform = decentralize_reform
					has_reform = states_general_reform
					NOT = { legitimacy = 80 }
					amount = 1
				}
			}
			add_stability = -1
		}
		
		if =  {
			limit = {
				NOT = {
					has_ruler_modifier = g32_veteran_battleking
					has_ruler_modifier = g32_legendary_battleking
				}
				calc_true_if = {
					has_reform = enforce_privileges_reform
					has_reform = decentralize_reform
					has_reform = states_general_reform
					NOT = { legitimacy = 80 }
					amount = 2
				}
			}
			custom_tooltip = malacnar_really_good_idea_tooltip
			hidden_effect = {
				malacnar_area = {
					spawn_rebels = {
						type = pretender_rebels
						size = 2
					}
				}
				add_manpower = -27
			}
		}
		
		change_government_to_monarchy = yes
		add_government_reform = malacnar_monarchy_reformed
		
		define_heir = {
			age = 12
			dynasty = ROOT
			claim = 50
		}
		
		if = {
			limit = {
				has_reform = states_general_reform
			}
			remove_government_reform = states_general_reform
		}
		
		ai_chance = {
			factor = 0	#disabling this choice for the AI as it would stop using its monarchs for battle
			
			modifier = {
				factor = 10
				OR = {
					ruler_has_personality = lawgiver_personality
					ruler_has_personality = cruel_personality
					ruler_has_personality = greedy_personality
					ruler_has_personality = malevolent_personality
				}
			}
			
			modifier = {
				factor = 0.5
				OR = {
					has_reform = enforce_privileges_reform
					has_reform = decentralize_reform
					has_reform = states_general_reform
					NOT = { legitimacy = 80 }
				}
			}
		}
	}
}

#Utility Event that plays for every won battle
country_event = {
	id = flavor_malacnar.6
	title = flavor_malacnar.6.t
	desc = flavor_malacnar.6.d
	picture = BATTLE_eventPicture
	
	is_triggered_only = yes
	hidden = yes
	
	immediate = {
		remove_country_modifier = g32_battleking_fought_recently
	}
	
	trigger = {
		tag = G32
	}
	
	option = {
		name = flavor_malacnar.6.a

		if = {	#You won't get questioned for cowardice during this period
			limit = {
				ai = no
			}
			add_ruler_modifier = {	#5 years for players
				name = g32_battleking_fought_recently
				duration = 1825
			}
		}
		else = {
			add_ruler_modifier = {	#10 years for AI
				name = g32_battleking_fought_recently
				duration = 3650
			}
		}
		
		if = {	#Chance to "level" up
			limit = {
				OR = {
					has_ruler_modifier = g32_untested_battleking
					has_ruler_modifier = g32_cowardly_battleking
				}
			}
			random = {
				chance = 50
				country_event = { id = flavor_malacnar.7 }
			}
		}
		else_if = {
			limit = {
				has_ruler_modifier = g32_tested_battleking
				has_ruler_modifier = g32_legendary_battleking
			}
			random = {
				chance = 20
				country_event = { id = flavor_malacnar.7 }
			}
		}
		else_if = {
			limit = {
				has_ruler_modifier = g32_bloodied_battleking
			}
			random = {
				chance = 10
				country_event = { id = flavor_malacnar.7 }
			}
		}
		else = {
			random = {
				chance = 5
				country_event = { id = flavor_malacnar.7 }
			}
		}
		
		#1 + 3 + 6-7 + 12-13. 50% chance to become legendary after 22-24 battles
		
		if = {	#chance of woman Battlequeen putting doubters to rest
			limit = {
				is_female = yes
			}
			if = {
				limit = {
					has_ruler_modifier = g32_tested_battleking
				}
				random = {
					chance = 20
					country_event = { id = flavor_malacnar.10 }
				}
			}
			else_if = {
				limit = {
					has_ruler_modifier = g32_bloodied_battleking
				}
				random = {
					chance = 50
					country_event = { id = flavor_malacnar.10 }
				}
			}
			else_if = {
				limit = {
					OR = {
						has_ruler_modifier = g32_veteran_battleking
						has_ruler_modifier = g32_legendary_battleking
					}
				}
				country_event = { id = flavor_malacnar.10 }
			}
		}
		
		ai_chance = {
			factor = 1
		}
	}
}

#Battleking Reberu-appo
country_event = {
	id = flavor_malacnar.7
	title = flavor_malacnar.7.t
	desc = flavor_malacnar.7.d
	picture = BATTLE_eventPicture
	
	is_triggered_only = yes
	
	trigger = {
		tag = G32
	}
	
	option = {
		name = flavor_malacnar.7.a
		
		if = {
			limit = {
				has_ruler_modifier = g32_untested_battleking
			}
			remove_country_modifier = g32_untested_battleking
			add_ruler_modifier = {
				name = g32_tested_battleking
			}
		}
		else_if = {
			limit = {
				has_ruler_modifier = g32_cowardly_battleking
			}
			remove_country_modifier = g32_cowardly_battleking
			add_ruler_modifier = {
				name = g32_untested_battleking
			}
		}
		else_if = {
			limit = {
				has_ruler_modifier = g32_tested_battleking
			}
			remove_country_modifier = g32_tested_battleking
			add_ruler_modifier = {
				name = g32_bloodied_battleking
			}
		}
		else_if = {
			limit = {
				has_ruler_modifier = g32_bloodied_battleking
			}
			remove_country_modifier = g32_bloodied_battleking
			add_ruler_modifier = {
				name = g32_veteran_battleking
			}
		}
		else_if = {
			limit = {
				has_ruler_modifier = g32_veteran_battleking
			}
			remove_country_modifier = g32_veteran_battleking
			add_ruler_modifier = {
				name = g32_legendary_battleking
			}
		}
		else = {
			add_mil_power = 100
			add_prestige = 20
		}
		
		ai_chance = {
			factor = 1
		}
	}
}

#Punishing the player for not having the battleking fight
country_event = {
	id = flavor_malacnar.8
	title = flavor_malacnar.8.t
	desc = {
		trigger = {
			has_ruler_modifier = g32_untested_battleking
		}
	   desc = flavor_malacnar.8.d1
	}
	desc = {
	   trigger = {
			has_ruler_modifier = g32_cowardly_battleking
		}
	   desc = flavor_malacnar.8.d2
	}
	desc = {
	   trigger = {
			has_ruler_modifier = g32_tested_battleking
		}
	   desc = flavor_malacnar.8.d3
	}
	desc = {
	   trigger = {
			OR = {
				has_ruler_modifier = g32_bloodied_battleking
				has_ruler_modifier = g32_veteran_battleking
			}
		}
	   desc = flavor_malacnar.8.d4
	}
	picture = DEBATE_REPUBLICAN_eventPicture
	
	is_triggered_only = yes
	
	trigger = {
		tag = G32
		NOT = {
			has_ruler_modifier = g32_battleking_fought_recently
			has_ruler_modifier = g32_battleking_grace_period
			has_ruler_modifier = g32_legendary_battleking
			has_country_modifier = malacnar_moment_peace #From "A Deep Breath Before War" mission.
			has_regency = yes
		}
	}
	
	immediate = {
		if = {
			limit = {
				ai = yes	#players get a 2 year grace period already as it's a pulse event
			}
			add_ruler_modifier = {	#Five years grace period for AI
				name = g32_battleking_grace_period
				duration = 1825
				hidden = yes
			}
		}
	}
	
	option = {
		name = flavor_malacnar.8.a
		trigger = { has_ruler_modifier = g32_untested_battleking }
		
		remove_country_modifier = g32_untested_battleking
		add_ruler_modifier = {
			name = g32_cowardly_battleking
		}
		
		ai_chance = {
			factor = 1
		}
	}
	
	option = {
		name = flavor_malacnar.8.b
		trigger = { has_ruler_modifier = g32_cowardly_battleking }
		
		add_stability = -1
		random_province = {
			limit = { area = malacnar_area }
			
			spawn_rebels = {
				type = pretender_rebels
				size = 2
			}
		}
		
		ai_chance = {
			factor = 1
		}
	}
	
	option = {
		name = flavor_malacnar.8.c
		trigger = { has_ruler_modifier = g32_tested_battleking }
		
		remove_country_modifier = g32_tested_battleking
		add_ruler_modifier = {
			name = g32_untested_battleking
		}
		
		ai_chance = {
			factor = 1
		}
	}
	
	option = {
		name = flavor_malacnar.8.d
		trigger = {
			OR = {
				has_ruler_modifier = g32_bloodied_battleking
				has_ruler_modifier = g32_veteran_battleking
			}
		}
		
		if = {
			limit = {
				has_ruler_modifier = g32_bloodied_battleking
			}
			remove_country_modifier = g32_bloodied_battleking
			add_ruler_modifier = {
				name = g32_tested_battleking
			}
		}
		else_if = {
			limit = {
				has_ruler_modifier = g32_veteran_battleking
			}
			remove_country_modifier = g32_veteran_battleking
			add_ruler_modifier = {
				name = g32_bloodied_battleking
			}
		}
		
		ai_chance = {
			factor = 1
		}
	}
}

#Child Ruler
country_event = {
	id = flavor_malacnar.9
	title = flavor_malacnar.9.t
	desc = flavor_malacnar.9.d
	picture = COUNTRY_COLLAPSE_eventPicture
	
	is_triggered_only = yes
	
	trigger = {
		tag = G32
		NOT = { has_country_flag = no_new_succession_crisis_if_pretender_rebels }
		has_regency = yes
	}
	
	immediate = {
		hidden_effect = {
			random_owned_province = {
				limit = {
					is_capital = no
					is_state = yes
				}
				spawn_rebels = {
					type = pretender_rebels
					size = 2
					win = yes
				}
			}
		}
	}
	
	option = {
		name = flavor_malacnar.9.a
		define_leader_to_ruler = {
		}
		kill_heir = yes
		add_stability = -1
		
		ai_chance = {
			factor = 1
		}
	}
	
	option = {
		name = flavor_malacnar.9.b
		define_ruler = {
			name = "Royal Battleguards"
			dynasty = "of Malacnar"
			claim = 50
			mil = 1
			regency = yes
			hide_skills = yes
		}
		kill_leader = {
			type = general
		}
		random_province = {
			limit = { area = malacnar_area }
			
			spawn_rebels = {
				type = pretender_rebels
				size = 2
			}
		}
		add_ruler_modifier = {
			name = g32_battleregency
		}
		
		ai_chance = {
			factor = 1
		}
	}
}

#Woman Battlequeen Proves Herself
country_event = {
	id = flavor_malacnar.10
	title = flavor_malacnar.10.t
	desc = flavor_malacnar.10.d
	picture = {
		trigger = { has_dlc = "Women in History" }
		picture = wihgfx_FEMALE_GENERAL_eventPicture
	}
	picture = {
		trigger = { NOT = { has_dlc = "Women in History" } }
		picture = QUEEN_AT_COUNCIL_TABLE_eventPicture
	}
	
	is_triggered_only = yes
	
	trigger = {
		tag = G32
		NOT = { has_country_modifier = g32_legacy_battlequeen }
		is_female = yes
		OR = {
			has_ruler_modifier = g32_bloodied_battleking
			has_ruler_modifier = g32_veteran_battleking
			has_ruler_modifier = g32_legendary_battleking
		}
	}

	option = {
		name = flavor_malacnar.10.a
		
		add_country_modifier = {
			name = g32_legacy_battlequeen
		}
		
		ai_chance = {
			factor = 1
		}
	}
	
	option = {
		name = flavor_malacnar.10.b
		
		add_country_modifier = {	#20 years
			name = g32_legacy_battlequeen
			duration = 7300
		}
		
		add_country_modifier = {	#still able to get female generals for a century
			name = g32_battlequeen
			duration = 14600
			hidden = yes
		}
		
		ai_chance = {
			factor = 0
		}
	}
}

#Events 101-1?? are triggered by the mission tree
#The First Companion
country_event = {
	id = flavor_malacnar.101
	title = flavor_malacnar.101.t
	desc = flavor_malacnar.101.d
	picture = CONQUEST_eventPicture
	
	is_triggered_only = yes
	
	option = {
		name = flavor_malacnar.101.a
		add_historical_friend = G32
		G32 = {
			add_historical_friend = ROOT
			country_event = { id = flavor_malacnar.102 days = 1 }
		}
		add_country_modifier = {
			name = malacnar_fight_three
			duration = 10950
		}
		hidden_effect = {
			every_subject_country = {
				limit = {
					is_subject_of_type = vassal
				}
				country_event = { id = flavor_malacnar.1025 days = 2 }
			}
			FROM = {
				create_subject = {
					subject_type = vassal
					subject = ROOT
				}
			}
			add_liberty_desire = 50
		} #To clear other alliances
	}
}
#Notify of First Companion
country_event = {
	id = flavor_malacnar.102
	title = flavor_malacnar.102.t
	desc = flavor_malacnar.102.d
	picture = CONQUEST_eventPicture
	
	is_triggered_only = yes
	
	immediate = {
		hidden_effect = {
			FROM = { grant_independence = yes }
			create_alliance = FROM
			random_ally = {
				limit = {
					AND = {
						has_opinion = {
							who = G32
							value = 100
						}
						culture_group = ynnic_ruinborn_elf
						NOT = { has_opinion_modifier = { who = G32 modifier = allied_to_rival } }
						NOT = { has_country_flag = malacnar_companion }
					}
				}
				country_event = { id = flavor_malacnar.103 days = 1 }
			}
		}
	}
	option = {
		name = flavor_malacnar.102.a
		add_prestige = 5
		FROM = { add_prestige = 5 }
	}
}
country_event = {
	id = flavor_malacnar.1025
	title = flavor_malacnar.1025.t
	desc = flavor_malacnar.1025.d
	picture = CONQUEST_eventPicture
	
	is_triggered_only = yes
	hidden = yes
	
	immediate = {
		hidden_effect = {
			FROM = { 
				create_subject = {
					subject_type = vassal
					subject = ROOT
				} 
			}
			add_liberty_desire = -15
		}
	}
	
	option = {
		name = flavor_malacnar.1025.a
	}
}
#The Second Companion (same loc as the first)
country_event = {
	id = flavor_malacnar.103
	title = flavor_malacnar.101.t
	desc = flavor_malacnar.101.d
	picture = CONQUEST_eventPicture
	
	is_triggered_only = yes
	
	option = {
		name = flavor_malacnar.101.a
		set_country_flag = malacnar_companion
		add_historical_friend = G32
		G32 = {
			country_event = { id = flavor_malacnar.104 days = 1 }
			add_historical_friend = ROOT
		}
		add_country_modifier = {
			name = malacnar_fight_three
			duration = 10950
		}
		random_country = {
			limit = {
				has_country_flag = malacnar_companion
			}
			country_event = { id = flavor_malacnar.105 days = 1 }
		}
		hidden_effect = {
			every_subject_country = {
				limit = {
					is_subject_of_type = vassal
				}
				country_event = { id = flavor_malacnar.1025 days = 2 }
			}
			FROM = {
				create_subject = {
					subject_type = vassal
					subject = ROOT
				}
			}
			add_liberty_desire = 50
		}
	}
}
#Notify of Second Companion
country_event = {
	id = flavor_malacnar.104
	title = flavor_malacnar.102.t
	desc = flavor_malacnar.102.d
	picture = CONQUEST_eventPicture
	
	is_triggered_only = yes
	
	immediate = {
		hidden_effect = {
			FROM = { grant_independence = yes }
			create_alliance = FROM
		}
	}
	
	option = {
		name = flavor_malacnar.102.a
		add_prestige = 5
		FROM = { add_prestige = 5 }
		#set_country_flag = malacnar_companion
	}
}
#Make sure the two companions are not historic rivals
country_event = {
	id = flavor_malacnar.105
	title = flavor_malacnar.105.t
	desc = flavor_malacnar.105.d
	picture = CONQUEST_eventPicture
	
	is_triggered_only = yes
	
	option = {
		name = flavor_malacnar.105.a
		remove_historical_rival = FROM
		add_prestige = 5
		FROM = {
			remove_historical_rival = ROOT
			country_event = { id = flavor_malacnar.106 days = 1 }
		}
	}
}
#Ally the two other companions together
country_event = {
	id = flavor_malacnar.106
	title = flavor_malacnar.105.t
	desc = flavor_malacnar.105.d
	picture = CONQUEST_eventPicture
	
	is_triggered_only = yes
	
	option = {
		name = flavor_malacnar.105.a
		add_historical_friend = FROM
		add_prestige = 5
		FROM = {
			add_historical_friend = ROOT
			create_alliance = ROOT
		}
	}
}
#Request the Companions become subject
country_event = {
	id = flavor_malacnar.107
	title = flavor_malacnar.107.t
	desc = flavor_malacnar.107.d
	picture = CONQUEST_eventPicture
	
	is_triggered_only = yes
	
	option = {
		name = flavor_malacnar.107.a
		ai_chance = { factor = 100 }
		G32 = { country_event = { id = flavor_malacnar.108 days = 1 } }
		G32 = { country_event = { id = flavor_malacnar.110 days = 9125 random = 730 } }
	}
	option = {
		name = flavor_malacnar.107.b
		ai_chance = { factor = 0 }
		G32 = { country_event = { id = flavor_malacnar.109 days = 1 } }
	}
}
#Positive Response
country_event = {
	id = flavor_malacnar.108
	title = flavor_malacnar.108.t
	desc = flavor_malacnar.108.d
	picture = CONQUEST_eventPicture
	
	is_triggered_only = yes
	
	option = {
		name = flavor_malacnar.108.a
		add_prestige = 5
		create_subject = {
			subject_type = autonomous_vassal
			subject = FROM
		}
	}
}
#Negative Response
country_event = {
	id = flavor_malacnar.109
	title = flavor_malacnar.109.t
	desc = flavor_malacnar.109.d
	picture = CONQUEST_eventPicture
	
	is_triggered_only = yes
	
	option = {
		name = flavor_malacnar.109.a
		add_prestige = -5
	}
}
#Turn Companion to normal vassal
country_event = {
	id = flavor_malacnar.110
	title = flavor_malacnar.110.t
	desc = flavor_malacnar.110.d
	picture = CONQUEST_eventPicture
	
	is_triggered_only = yes
	
	option = {
		name = flavor_malacnar.110.a
		add_prestige = 5
		create_subject = {
			subject_type = vassal
			subject = FROM
		}
	}
}
#Foreign Contact
country_event = {
	id = flavor_malacnar.111
	title = flavor_malacnar.111.t
	desc = flavor_malacnar.111.d
	picture = TRADE_GOODS_FURS_FISH_AND_SALT_eventPicture
	
	is_triggered_only = yes
	
	option = {
		name = flavor_malacnar.111.a
		trigger = {
			owns = 1165
		}
		ai_chance = { factor = 99 }
		1165 = {
			add_province_modifier = {
				name = malacnar_meeting
				duration = -1
			}
			add_institution_embracement = {
				which = new_world_i
				value = 30
			}
			add_province_modifier = {
				name = malacnar_rush
				duration = 3650
			}
		}
		if = {
			limit = { owns = 2837 }
			2837 = {
				add_province_modifier = {
					name = malacnar_meeting
					duration = -1
				}
				add_institution_embracement = {
					which = new_world_i
					value = 20
				}
			}
		}
		if = {
			limit = { owns = 2839 }
			2839 = {
				add_province_modifier = {
					name = malacnar_meeting
					duration = -1
				}
				add_institution_embracement = {
					which = new_world_i
					value = 20
				}
			}
		}
	}
	option = {
		name = flavor_malacnar.111.b
		ai_chance = { factor = 1 }
		random_owned_province = {
			limit = {
				is_core = ROOT
			}
			add_institution_embracement = {
				which = new_world_i
				value = 50
			}
			add_province_modifier = {
				name = malacnar_rush
				duration = 1825
			}
		}
	}
}
#Steal some relics
country_event = {
	id = flavor_malacnar.112
	title = flavor_malacnar.112.t
	desc = flavor_malacnar.112.d
	picture = SIEGE_eventPicture
	
	is_triggered_only = yes
	
	option = {
		name = flavor_malacnar.112.a
		random_province = {
			limit = {
				colonial_region = colonial_eordand
				trade_goods = precursor_relics
				controlled_by = ROOT
			}
			add_base_tax = -1
			add_base_production = -2
			add_devastation = 80
		}
		2808 = {
			change_trade_goods = precursor_relics
			add_base_production = 2
		}
	}
}
#The Embers of Dromandrod
country_event = {
	id = flavor_malacnar.113
	title = flavor_malacnar.113.t
	desc = flavor_malacnar.113.d
	picture = SIEGE_eventPicture
	
	is_triggered_only = yes
	
	option = {
		name = flavor_malacnar.113.a
		add_prestige = 50 #placeholder, effect TBD
	}
}
#Send event to Malacnar
country_event = {
	id = flavor_malacnar.114
	title = flavor_malacnar.1025.t
	desc = flavor_malacnar.1025.d
	picture = SIEGE_eventPicture
	
	is_triggered_only = yes
	hidden = yes
	
	immediate = {
		hidden_effect = { FROM = { country_event = { id = flavor_malacnar.115 } } }
	}
	
	option = {
		name = flavor_malacnar.1025.a
		ai_chance = { factor = 100 }
	}
}
#Malacnari Glory Tradition Gain
country_event = {
	id = flavor_malacnar.115
	title = flavor_malacnar.115.t
	desc = flavor_malacnar.115.d
	picture = SIEGE_eventPicture
	
	is_triggered_only = yes
	
	option = {
		name = flavor_malacnar.115.a
		ai_chance = { factor = 100 }
		if = {
			limit = { FROM = { is_great_power = yes } }
			add_army_tradition = 25
		}
		else_if = {
			limit = { FROM = { is_rival = ROOT } }
			add_army_tradition = 20
		}
		else_if = {
			limit = { FROM = { total_development = 250 } }
			add_army_tradition = 15
		}
		else_if = {
			limit = { FROM = { total_development = 150 } }
			add_army_tradition = 10
		}
		else_if = {
			limit = { FROM = { total_development = 100 } }
			add_army_tradition = 5
		}
	}
}