namespace = magic_realm_illusion


#Illusion - Menu
country_event = {
	id = magic_realm_illusion.0
	title = magic_realm_illusion.0.t
	desc = magic_realm_illusion.0.d
	picture = BIG_BOOK_eventPicture
	
	is_triggered_only = yes
	
	option = {
		name = magic_realm_nospells.0.a
		trigger = {
			NOT = { has_ruler_flag = illusion_1 }
			NOT = { has_ruler_flag = illusion_2 }
			NOT = { has_ruler_flag = illusion_3 }
		}
		ai_chance = {
			factor = 50
			modifier = {
				factor = 2
				NOT = { prestige = 50 }
			}
		}
		
		if = {
			limit = {
				ai = yes	#makes ai back out of casting completely to prevent spam
			}
			add_ruler_modifier = { 
				name = magic_realm_menu_cooldown
				duration = 1825	#prevents them casting for 5 years
				hidden = yes
			}
			close_single_menu = yes
		}
		else = {
			country_event = { id = magic_realm.0 days = 0 }
		}
	}
	
	option = {	# illusion.1 - [1] Illusionary Marvels
		name = magic_realm_illusion.1.t
		trigger = {
			has_ruler_flag = illusion_1
		}
		ai_chance = {
			factor = 50
			modifier = {
				factor = 5
				NOT = { prestige = 30 }
			}
		}
		
		country_event = { id = magic_realm_illusion.1 days = 0 }
		
		custom_tooltip = tooltip_option_illusion_1
	}
	
	option = {	# illuson.2 - [2] Glamour
		name = magic_realm_illusion.2.t
		trigger = {
			has_ruler_flag = illusion_2
		}
		ai_chance = {
			factor = 50
			modifier = {
				factor = 10
				personality = ai_diplomat
			}
		}
		
		country_event = { id = magic_realm_illusion.2 days = 0 }
		
		custom_tooltip = tooltip_option_illusion_2
	}
	
	option = {	# illusion.3 - [3] Simulacrum
		name = magic_realm_illusion.3.t
		trigger = {
			has_ruler_flag = illusion_3
		}
		ai_chance = {
			factor = 50
			modifier = {
				factor = 0
				has_ruler_flag = magic_project_simulacrum_started
			}
			modifier = {
				factor = 0
				has_ruler_flag = magic_project_simulacrum_complete
			}
		}
		
		country_event = { id = magic_realm_illusion.3 days = 0 }
		
		custom_tooltip = tooltip_option_illusion_3
	}
	
	option = {
		name = magic_siege.goback
		ai_chance = {
			factor = 5
		}
		if = {
			limit = {
				ai = yes	#makes ai back out of casting completely to prevent spam
			}
			add_ruler_modifier = { 
				name = magic_realm_menu_cooldown
				duration = 1825	#prevents them casting for 5 years
				hidden = yes
			}
			close_single_menu = yes
		}
		else = {
			country_event = { id = magic_realm.0 days = 0 }
		}
		
	}
}

# 1 - Illusionary Marvels
country_event = {
	id = magic_realm_illusion.1
	title = magic_realm_illusion.1.t
	desc = magic_realm_illusion.1.d
	picture = STREET_SPEECH_eventPicture
	
	is_triggered_only = yes
	
	option = {	#Level 1
		name = magic_realm_illusion.1.a
		trigger = {
			has_ruler_flag = illusion_1
		}
		ai_chance = {
			factor = 50
		}
		
		#Cost
		add_mil_power = -10
		
		#Effect
		magic_casted_spell = yes
		
		add_prestige = 2
		
		#custom_tooltip = tooltip_option_illusion_1 #base spells dont need it
	}
	
	option = {	#Level 3
		name = magic_realm_illusion.1.b
		trigger = {
			has_ruler_flag = illusion_2
		}
		ai_chance = {
			factor = 50
			modifier = {
				factor = 2
				has_ruler_flag = illusion_2
				NOT = { has_ruler_flag = illusion_3 }
			}
		}
		
		#Cost
		add_mil_power = -20
		
		#Effect
		magic_casted_spell = yes
		
		add_prestige = 5
		
		custom_tooltip = tooltip_option_illusion_2
	}
	
	option = {	#Level 3
		name = magic_realm_illusion.1.c
		trigger = {
			has_ruler_flag = illusion_3
		}
		ai_chance = {
			factor = 50
			modifier = {
				factor = 2
				NOT = { prestige = 50 }
			}
			modifier = {
				factor = 2
				has_ruler_flag = illusion_3
			}
		}
		
		#Cost
		add_mil_power = -30
		
		#Effect
		magic_casted_spell = yes
		
		add_prestige = 10
		
		custom_tooltip = tooltip_option_illusion_3
	}
	
	option = {	#Option B: Go back
		name = magic_siege.goback
		ai_chance = {
			factor = 5
		}
		if = {
			limit = {
				ai = yes	#makes ai back out of casting completely to prevent spam
			}
			add_ruler_modifier = { 
				name = magic_realm_menu_cooldown
				duration = 1825	#prevents them casting for 5 years
				hidden = yes
			}
			close_single_menu = yes
		}
		else = {
			country_event = { id = magic_realm_illusion.0 days = 0 }
		}
	}
}

# 2 - Glamour
country_event = {
	id = magic_realm_illusion.2
	title = magic_realm_illusion.2.t
	desc = magic_realm_illusion.2.d
	picture = wihgfx_FEMALES_eventPicture
	
	is_triggered_only = yes
	
	option = {
		name = magic_realm_unavailable.0.a
		trigger = {
			OR = {
				has_ruler_modifier = magic_realm_illusion_glamour
				has_ruler_modifier = magic_realm_illusion_enchanted_glamour
				has_ruler_modifier = magic_realm_illusion_otherworldly_glamour
			}
		}
		custom_tooltip = tooltip_magic_realm_unavailable_cooldown
		if = {
			limit = {
				ai = yes	#makes ai back out of casting completely to prevent spam
			}
			add_ruler_modifier = { 
				name = magic_realm_menu_cooldown
				duration = 1825	#prevents them casting for 5 years
				hidden = yes
			}
			close_single_menu = yes
		}
		else = {
			country_event = { id = magic_realm_illusion.0 days = 0 }
		}
	}
	
	option = {	#Glamour
		name = magic_realm_illusion.2.a
		trigger = {
			has_ruler_flag = illusion_2
			NOT = { has_ruler_modifier = magic_realm_illusion_glamour }
			NOT = { has_ruler_modifier = magic_realm_illusion_enchanted_glamour }
			NOT = { has_ruler_modifier = magic_realm_illusion_otherworldly_glamour }
		}
		ai_chance = {
			factor = 50
		}
		
		#Cost
		add_dip_power = -20
		
		#Effect
		magic_casted_spell = yes
		
		add_ruler_modifier = {
			name = magic_realm_illusion_glamour
			duration = 365
		}
		
		#custom_tooltip = tooltip_option_illusion_2
	}
	
	option = {	#Enchanted Glamour
		name = magic_realm_illusion.2.b
		trigger = {
			has_ruler_flag = illusion_2
			has_ruler_flag = enchantment_1
			NOT = { has_ruler_modifier = magic_realm_illusion_glamour }
			NOT = { has_ruler_modifier = magic_realm_illusion_enchanted_glamour }
			NOT = { has_ruler_modifier = magic_realm_illusion_otherworldly_glamour }
		}
		ai_chance = {
			factor = 50
			modifier = {
				factor = 2
				has_ruler_flag = illusion_2
				has_ruler_flag = enchantment_1
			}
		}
		
		#Cost
		add_dip_power = -25
		add_adm_power = -5
		
		#Effect
		magic_casted_spell = yes
		
		add_ruler_modifier = {
			name = magic_realm_illusion_enchanted_glamour
			duration = 365
		}
		
		custom_tooltip = tooltip_option_illusion_2
		custom_tooltip = tooltip_option_enchantment_1
	}
	
	option = {	#Otherworldly Glamour
		name = magic_realm_illusion.2.c
		trigger = {
			has_ruler_flag = illusion_3
			has_ruler_flag = enchantment_2
			NOT = { has_ruler_modifier = magic_realm_illusion_glamour }
			NOT = { has_ruler_modifier = magic_realm_illusion_enchanted_glamour }
			NOT = { has_ruler_modifier = magic_realm_illusion_otherworldly_glamour }
		}
		ai_chance = {
			factor = 50
			modifier = {
				factor = 2
				has_ruler_flag = illusion_3
				has_ruler_flag = enchantment_2
			}
		}
		
		#Cost
		add_dip_power = -25
		add_adm_power = -5
		
		#Effect
		magic_casted_spell = yes
		
		add_ruler_modifier = {
			name = magic_realm_illusion_otherworldly_glamour
			duration = 365
		}
		
		custom_tooltip = tooltip_option_illusion_3
		custom_tooltip = tooltip_option_enchantment_2
	}
	
	option = {	#Option B: Go back
		name = magic_siege.goback
		ai_chance = {
			factor = 5
		}
		if = {
			limit = {
				ai = yes	#makes ai back out of casting completely to prevent spam
			}
			add_ruler_modifier = { 
				name = magic_realm_menu_cooldown
				duration = 1825	#prevents them casting for 5 years
				hidden = yes
			}
			close_single_menu = yes
		}
		else = {
			country_event = { id = magic_realm_illusion.0 days = 0 }
		}
	}
}

# 3 - Simulacrum
country_event = {
	id = magic_realm_illusion.3
	title = magic_realm_illusion.3.t
	desc = magic_realm_illusion.3.d
	picture = wihgfx_FEMALES_eventPicture
	
	is_triggered_only = yes
	
	option = {
		name = magic_realm_unavailable.0.a
		trigger = {
			OR = {
				has_ruler_flag = magic_project_simulacrum_started
				has_ruler_flag = magic_project_simulacrum_complete
			}
		}
		custom_tooltip = tooltip_magic_realm_unavailable_simulacrum_exists
		
		if = {
			limit = {
				ai = yes	#makes ai back out of casting completely to prevent spam
			}
			add_ruler_modifier = { 
				name = magic_realm_menu_cooldown
				duration = 1825	#prevents them casting for 5 years
				hidden = yes
			}
			close_single_menu = yes
		}
		else = {
			country_event = { id = magic_realm_illusion.0 days = 0 }
		}
	}
	
	option = {	#Craft Simulacrum
		name = magic_realm_illusion.3.a
		trigger = {
			has_ruler_flag = illusion_3
			# OR = {
				# NOT = { has_ruler_modifier = magic_realm_illusion_simulacrum }
				# NOT = { has_ruler_modifier = magic_realm_illusion_simulacrum_exposed }
			# }
			NOT = { has_ruler_flag = magic_project_simulacrum_started }
			NOT = { has_ruler_flag = magic_project_simulacrum_complete }
		}
		ai_chance = {
			factor = 50
			modifier = {
				factor = 0
				NOT = { adm_power = 50 }
				NOT = { dip_power = 50 }
				NOT = { mil_power = 50 }
			}
		}
		
		#Cost
		add_adm_power = -50
		add_dip_power = -50
		add_mil_power = -50
		
		#Effect
		magic_casted_spell = yes
		
		hidden_effect = { ROOT = { country_event = { id = magic_project_simulacrum.1 days = 14 } } }
		
		set_ruler_flag = magic_project_simulacrum_started
		custom_tooltip = tooltip_magic_project_start
		
	}
	
	option = {	#Option B: Go back
		name = magic_siege.goback
		ai_chance = {
			factor = 5
		}
		if = {
			limit = {
				ai = yes	#makes ai back out of casting completely to prevent spam
			}
			add_ruler_modifier = { 
				name = magic_realm_menu_cooldown
				duration = 1825	#prevents them casting for 5 years
				hidden = yes
			}
			close_single_menu = yes
		}
		else = {
			country_event = { id = magic_realm_illusion.0 days = 0 }
		}
	}
}

# 3 - Simulacrum (activated when studying)
country_event = {
	id = magic_realm_illusion.4
	title = magic_realm_illusion.4.t
	desc = magic_realm_illusion.4.d
	picture = wihgfx_FEMALES_eventPicture
	
	is_triggered_only = yes
	
	trigger = {
		has_ruler_flag = magic_project_simulacrum_complete
		has_ruler_modifier = ruler_studying_magic
		
		NOT = { has_ruler_modifier = ruler_cooldown_10yr }
	}
	
	option = {	#Summon Simulacrum
		name = magic_realm_illusion.4.a
		trigger = {
			has_ruler_flag = illusion_3
			has_ruler_flag = magic_project_simulacrum_complete
			has_ruler_modifier = ruler_studying_magic
		}
		ai_chance = {
			factor = 50
			modifier = {
				factor = 0
				NOT = { adm_power = 20 }
				NOT = { dip_power = 20 }
			}
		}
		
		#Cost
		add_adm_power = -20
		add_dip_power = -20
		
		#Effect
		magic_casted_spell = yes
		
		if = {
			limit = {
				has_ruler_flag = magic_realm_simulacrum_exposed
			}
			add_ruler_modifier = {
				name = magic_realm_illusion_simulacrum_exposed
				duration = 3650
			}
		}
		else = {
			add_ruler_modifier = {
				name = magic_realm_illusion_simulacrum
				duration = 3650
			}
		}
	}
	
	option = {	#No thanks
		name = magic_realm_illusion.4.b
		ai_chance = {
			factor = 10
		}
		
		add_ruler_modifier = {
			name = ruler_cooldown_10yr
			duration = 3650
			hidden = yes
		}
	}

}