#Country Name: Please see filename.

graphical_culture = westerngfx

color = { 6  6  6 }

revolutionary_colors = { 6  6  6 }

historical_idea_groups = {
	exploration_ideas
	maritime_ideas
	economic_ideas
	offensive_ideas
	expansion_ideas
	quality_ideas	
	administrative_ideas	
	influence_ideas
}

historical_units = {
	cannorian_1_medieval_infantry
	cannorian_1_medieval_knights
	cannorian_5_men_at_arms
	cannorian_9_pike_and_shot
	cannorian_10_gun_knights
	cannorian_12_thorn_formation
	cannorian_14_outriders
	cannorian_15_volley_infantry
	cannorian_18_reformed_outriders
	cannorian_19_thorn_formation2
	cannorian_23_line_infantry
	cannorian_26_carabiners
	cannorian_26_dovecoat_infantry
	cannorian_28_impulse_infantry
	cannorian_28_cuirassier
	cannorian_30_drill_infantry
}

monarch_names = {


	"Akerak #0" = 10
	"Alkan #0" = 10
	"Alsegard #0" = 10
	"Amul #0" = 10
	"Arcan #0" = 10
	"Azimir #0" = 10
	"Balos #0" = 10
	"Dethmir #0" = 10
	"Drezad #0" = 10
	"Ezelin #0" = 10
	"Fuvran #0" = 10
	"Gaelak #0" = 10
	"Gilos #0" = 10
	"Girius #0" = 10
	"Inaudum #0" = 10
	"Izretik #0" = 10
	"Karos #0" = 10
	"Kauron #0" = 10
	"Kazius #0" = 10
	"Korkax #0" = 10
	"Kotru #0" = 10
	"Lauron #0" = 10
	"Morak #0" = 10
	"Mordon #0" = 10
	"Morun #0" = 10
	"Mothum #0" = 10
	"Mul #0" = 10
	"Nemon #0" = 10
	"Nichmer #0" = 10
	"Nokdan #0" = 10
	"Nouzis #0" = 10
	"Ocoth #0" = 10
	"Oreilos #0" = 10
	"Phelgorn #0" = 10
	"Pheron #0" = 10
	"Prazhar #0" = 10
	"Prezar #0" = 10
	"Staexus #0" = 10
	"Stuthar #0" = 10
	"Thunaril #0" = 10
	"Uriat #0" = 10
	"Vagurin #0" = 10
	"Valen #0" = 10
	"Valok #0" = 10
	"Valos #0" = 10
	"Valris #0" = 10
	"Xakar #0" = 10
	"Xaphon #0" = 10
	"Xowok #0" = 10
	"Yekhar #0" = 10
	"Zandul #0" = 10
	"Zodum #0" = 10
	"Zreban #0" = 10
	"Zund #0" = 10
	
	"Acrouress #0" = -1
	"Aveiselm #0" = -1
	"Aveisis #0" = -1
	"Breress #0" = -1
	"Buvris #0" = -1
	"Cridita #0" = -1
	"Draedita #0" = -1
	"Drebri #0" = -1
	"Drexaura #0" = -1
	"Evmira #0" = -1
	"Feghana #0" = -1
	"Giosine #0" = -1
	"Grethe #0" = -1
	"Gricilia #0" = -1
	"Haerina #0" = -1
	"Hereas #0" = -1
	"Ikrecia #0" = -1
	"Izrira #0" = -1
	"Kadita #0" = -1
	"Kiopeste #0" = -1
	"Kraress #0" = -1
	"Krazaen #0" = -1
	"Krocia #0" = -1
	"Lehilah #0" = -1
	"Liolya #0" = -1
	"Maurot #0" = -1
	"Mouverra #0" = -1
	"Nopris #0" = -1
	"Nupeste #0" = -1
	"Osoumona #0" = -1
	"Pahilde #0" = -1
	"Pdoria #0" = -1
	"Ravasha #0" = -1
	"Savris #0" = -1
	"Shiored #0" = -1
	"Shousel #0" = -1
	"Stralian #0" = -1
	"Streghana #0" = -1
	"Taverra #0" = -1
	"Vaeness #0" = -1
	"Vrobeth #0" = -1
	"Xasin #0" = -1
	"Xasin #0" = -1
	"Yeress #0" = -1
	"Zovana #0" = -1
	"Zramis #0" = -1
	"Zratulah #0" = -1
	"Zrire #0" = -1
}

leader_names = {
	
	#Generic Evil Titles
	"'the Stout'" "'the Rash'" "'the Deadly'" "'the Master'" "'the Slaver'" "'the Warlord'" "'the Relentless'" "'the Bold'" "'the Warrior'" "'the Death-bringer'" "'the Handsome'" "'the Greedy'" "'the Tyrant'" "'the Unbreakable'" "'the Great'"
	"'the Defiler'" "'the Dead'" "'the Poker'" "'the Strangler'" "'the Twisted'" "'the Punisher'" "'the Devourer'" "'the Gravewalker'" "'the Crafty'" "'the Smart'" "'the Unwashed'" "'the Vile'" "'the Whisperer'" "'the Seer'" "'the Wicked'" "'the Brander'"
	"'the Large'" "'the Tall'" "'the Fat'" "'the Small'" "'the Strong'" "'the Clever'" "'the Crusher'" "'the Halfblooded"
	
	#Generic Evil Spellcaster
	"'the Mad'" "'the Evil'" "'the Black'" Spellseer Dreadwhisper Cursewand Blackstaff Skullwand "'the Dreaded'" Dread Black Ebon Onyxheart Blackheart Deadheart Deadhand "'the Undying'"

}

ship_names = {
	#Generic Cannorian
	Adamant Advantage Adventure Advice Answer Ardent Armada Arrogant Assistance Association Assurance Atlas Audacious 
	Bear Beaver "Black Galley" "Black Pinnace" "Black Prince" "Black Blood" Captain Centurion Coronation Courage Crocodile Crown
	Daisy Defence Defiance Devastation Diamond Director Dolphin Dragon Drake Dreadnaught Duke Duchess Eagle Elephant Excellent Exchange Expedition Experiment
	Falcon Fame Favourite Fellowship Fleetwood Flight Flirt Formidable Forrester Fortitude Fortune Gillyflower Globe "Golden Horse" "Golden Lion" "Golden Phoenix" Goliath Goodgrace Governor
	"Grand Mistress" "Great Bark" "Great Charity" "Great Galley" "Great Gift"  "Great Pinnace" "Great Zebra" "Green Dragon" Greyhound Griffin Guide "Half Moon" Hare Harpy Hawke Hazardous Heart
	Hero Hope "Hope Bark" "Hopeful Adventure" Humble Hunter Illustrious Impregnable Increase Indefatigable Inflexible Intrepid Invincible "Less Bark" "Less Pinnace" "Less Zebra"
	Lively Lizard Lion Magnanime Magnificent Majestic Makeshift Medusa Minotaur Moderate Monarch Moon Moor "New Bark" Ocean 
	Pansy Panther Parrot Porcupine Powerful President Prince "Prince Consort" "Prince Royal"
	Redoubtable Reformation Regent Renown Repulse Research Reserve Resistance Resolution Restoration Revenge 
	Salamander Sandwich Sapphire Satisfaction Seahorse Search Sheerness Speaker Speedwell Sphinx Splendid Sprite Stag Standard Stately Success Sunlight Sunbeam Superb Swan Sweepstake Swift Swiftsure
	Terrible Terror Thunderer Tiger Tremendous Trident Trinity Triumph Trusty
	Unicorn Union Unity Valiant Vanguard Venerable Vestal Veteran Victor Vindictive Virtue Violet
	Warrior Warspite "Young Prince" Zealous

	Survey Surveillance Cow Ox Bird Hawk Sovereign Emperor Count Lord Baron

	Knight Paladin Dragonslayer Cleric Rogue Fighter Ranger Sorcerer Wizard Warlock Monk Druid
	Strength Dexterity Constitution Intelligence Wisdom Charisma
	
	#Elven
	Lunetine Agraseina 
	
	#Regent Court Deities
	Castellos Dame "The Dame" Halanna Ysh Yshtralania Agradls Adean Esmaryal Ryala Edronias Falah Nerat Ara Minara Munas Moonsinger Nathalyne Begga Corin Balgar
	Uelos Drax'os
}

army_names = {
	"Black Army" "Army of $PROVINCE$"
}

fleet_names = {
	"Black Fleet"
}